<svg width="21" height="13" viewBox="0 0 21 13" fill="none" xmlns="http://www.w3.org/2000/svg">
<path d="M20.1572 13H0.139587V0H20.1572V13Z" fill="#FF4B55"/>
<path d="M3.4566 2.04039L3.78499 3.0167L4.82294 3.02467C4.95733 3.02568 5.01305 3.19576 4.90492 3.27488L4.06996 3.88623L4.38302 4.8675C4.42353 4.99456 4.27767 5.0996 4.16833 5.02214L3.32393 4.42364L2.47953 5.0221C2.37019 5.0996 2.22433 4.99448 2.26484 4.86746L2.5779 3.88619L1.74294 3.27488C1.63481 3.19572 1.69053 3.02568 1.82492 3.02467L2.86286 3.0167L3.19126 2.04039C3.23379 1.91395 3.41411 1.91395 3.4566 2.04039Z" fill="#FFE15A"/>
<path d="M7.22567 2.28088L7.46116 2.5993L7.84118 2.48145C7.89038 2.4662 7.93085 2.52184 7.90072 2.56328L7.66808 2.88368L7.89854 3.20562C7.92839 3.24729 7.88754 3.30266 7.83845 3.28706L7.45921 3.1667L7.22161 3.48354C7.19086 3.52455 7.12511 3.50311 7.12492 3.45204L7.12316 3.0572L6.74583 2.93103C6.69701 2.91467 6.69721 2.84611 6.74618 2.83009L7.12429 2.70643L7.12874 2.31164C7.12929 2.2606 7.19519 2.23967 7.22567 2.28088Z" fill="#FFE15A"/>
<path d="M5.79197 1.33187L6.18784 1.37451L6.35672 1.01697C6.37861 0.970698 6.44729 0.978629 6.45782 1.02866L6.53922 1.4151L6.93435 1.46385C6.9855 1.47015 6.99912 1.5374 6.95436 1.56282L6.60883 1.75898L6.68418 2.14666C6.69394 2.19688 6.63365 2.23046 6.59545 2.19614L6.30049 1.93092L5.95196 2.12174C5.90685 2.14647 5.85593 2.09996 5.87708 2.05334L6.0403 1.69321L5.74952 1.42346C5.7119 1.38871 5.74074 1.32638 5.79197 1.33187Z" fill="#FFE15A"/>
<path d="M6.41779 5.15808L6.1823 5.4765L5.80228 5.35865C5.75308 5.34341 5.71261 5.39904 5.74274 5.44048L5.97538 5.76088L5.74492 6.08282C5.71507 6.12449 5.75593 6.17986 5.80501 6.16426L6.18425 6.0439L6.42185 6.36073C6.45259 6.40174 6.51834 6.38031 6.51854 6.32924L6.52029 5.9344L6.89762 5.80823C6.94647 5.79187 6.94624 5.72331 6.89727 5.70729L6.51916 5.58364L6.51471 5.18884C6.51409 5.13785 6.44826 5.11684 6.41779 5.15808Z" fill="#FFE15A"/>
<path d="M7.85141 4.2662L7.45554 4.30884L7.28666 3.9513C7.26477 3.90502 7.19609 3.91296 7.18556 3.96298L7.10412 4.34942L6.70899 4.39817C6.65784 4.40448 6.64422 4.47173 6.68898 4.49714L7.03451 4.69331L6.95916 5.08099C6.9494 5.13121 7.00969 5.16479 7.04789 5.13047L7.34285 4.86525L7.69138 5.05607C7.73649 5.08079 7.78741 5.03429 7.76626 4.98766L7.60304 4.62753L7.89382 4.35778C7.93155 4.32304 7.90272 4.26071 7.85141 4.2662Z" fill="#FFE15A"/>
</svg>
