<svg width="366" height="236" viewBox="0 0 366 236" fill="none" xmlns="http://www.w3.org/2000/svg">
<path d="M80.483 0.000244141H5.07153C2.2706 0.000244141 0 2.20201 0 4.91802V53.2405C0 55.9566 2.2706 58.1583 5.07153 58.1583H80.483C83.2839 58.1583 85.5545 55.9566 85.5545 53.2405V4.91802C85.5545 2.20201 83.2839 0.000244141 80.483 0.000244141Z" fill="#F1F1F1"/>
<path d="M84.8931 0H80.483C81.8281 0 83.118 0.518102 84.0691 1.44036C85.0202 2.36263 85.5546 3.6135 85.5546 4.91778V53.2403C85.5546 54.5446 85.0202 55.7954 84.0691 56.7177C83.118 57.6399 81.8281 58.1581 80.483 58.1581H84.8931C86.2381 58.1581 87.5281 57.6399 88.4792 56.7177C89.4303 55.7954 89.9646 54.5446 89.9646 53.2403V4.91778C89.9646 3.6135 89.4303 2.36263 88.4792 1.44036C87.5281 0.518102 86.2381 0 84.8931 0Z" fill="url(#paint0_linear)"/>
<path d="M46.5485 16.2047C48.691 16.0666 50.7679 15.4307 52.6039 14.3509C49.6525 12.4912 46.2073 11.5034 42.6875 11.5076C42.5384 11.5076 42.3916 11.5149 42.2434 11.5183C43.9031 12.8718 45.353 14.4502 46.5485 16.2047Z" fill="#E5E5E5"/>
<path d="M53.2846 14.9435C51.417 16.1108 49.2843 16.8195 47.0709 17.0086C47.7953 18.1744 48.4196 19.396 48.9377 20.661C49.0012 20.6541 49.0665 20.646 49.1295 20.6396C54.2893 20.1029 57.7489 20.7632 58.8757 21.0322C57.5633 18.5959 55.686 16.488 53.3914 14.8743L53.2846 14.9435Z" fill="#E5E5E5"/>
<path d="M30.8044 15.7785C33.2119 15.7212 35.6208 15.8069 38.0175 16.0351C39.5535 16.1519 41.1411 16.2725 42.6947 16.3105C43.5865 16.3323 44.547 16.3328 45.533 16.2793C44.4142 14.7133 43.0809 13.3021 41.5697 12.0846L41.2306 11.8114L41.4511 11.5522C37.5238 11.8056 33.7876 13.2887 30.8044 15.7785Z" fill="#E5E5E5"/>
<path d="M59.386 22.0633L59.0142 21.953C58.9406 21.9307 55.2688 20.8976 49.2738 21.5146C49.8018 22.9451 50.2192 24.4116 50.5227 25.9021C50.7754 25.891 51.0268 25.8872 51.2773 25.9021C53.8144 26.0334 56.2275 27.4694 58.2548 30.0553C59.0952 31.1349 59.8101 32.3012 60.3866 33.5328C61.3783 29.7087 61.0262 25.6731 59.386 22.065V22.0633Z" fill="#E5E5E5"/>
<path d="M48.9285 45.5621C48.97 45.4193 51.5344 36.2825 49.8132 26.8318C44.8607 27.596 39.2265 33.6341 33.4224 44.4246L33.4105 44.4464C35.7172 45.7667 38.2952 46.5786 40.9617 46.8246C43.6282 47.0706 46.3178 46.7447 48.8399 45.87L48.9285 45.5621Z" fill="#E5E5E5"/>
<path d="M59.8956 34.6231L59.7337 34.2254C59.7046 34.1536 56.7526 27.0374 51.2268 26.7543C51.0473 26.7444 50.8669 26.7436 50.6852 26.7487C52.2446 35.4224 50.2994 43.7817 49.8615 45.479C52.2753 44.4754 54.4381 42.9797 56.2028 41.0935C57.9676 39.2074 59.2929 36.9749 60.0887 34.5479L59.8956 34.6231Z" fill="#E5E5E5"/>
<path d="M49.648 25.9856C49.3401 24.5 48.9151 23.0395 48.3766 21.6169C42.2908 22.3867 34.0401 24.8605 24.8147 31.538L24.618 31.6804C24.9803 34.1684 25.8849 36.553 27.2716 38.6756C28.6584 40.7981 30.4955 42.6099 32.6606 43.9903C38.6618 32.8453 44.363 26.8011 49.648 25.9856Z" fill="#E5E5E5"/>
<path d="M48.0358 20.7688C47.4999 19.4941 46.8507 18.267 46.0954 17.1014C45.3148 17.1587 44.5461 17.1801 43.8092 17.1801C43.4207 17.1801 43.041 17.1741 42.6723 17.1651C41.0957 17.1266 39.4971 17.0052 37.9487 16.8876C35.3646 16.6289 32.7643 16.555 30.169 16.6665L29.7796 16.693C28.083 18.3346 26.7376 20.285 25.8207 22.4322C24.9037 24.5794 24.4333 26.8811 24.4364 29.2052C24.4364 29.708 24.4633 30.205 24.5056 30.6976C33.9652 23.9063 42.3491 21.5244 48.0358 20.7688Z" fill="#E5E5E5"/>
<path d="M177.704 0.000244141H102.292C99.4915 0.000244141 97.2209 2.20201 97.2209 4.91802V53.2405C97.2209 55.9566 99.4915 58.1583 102.292 58.1583H177.704C180.505 58.1583 182.775 55.9566 182.775 53.2405V4.91802C182.775 2.20201 180.505 0.000244141 177.704 0.000244141Z" fill="#F1F1F1"/>
<path d="M182.114 0H177.704C179.049 0 180.339 0.518102 181.29 1.44036C182.242 2.36263 182.776 3.6135 182.776 4.91778V53.2403C182.776 54.5446 182.242 55.7954 181.29 56.7177C180.339 57.6399 179.049 58.1581 177.704 58.1581H182.114C183.459 58.1581 184.749 57.6399 185.7 56.7177C186.652 55.7954 187.186 54.5446 187.186 53.2403V4.91778C187.186 3.6135 186.652 2.36263 185.7 1.44036C184.749 0.518102 183.459 0 182.114 0Z" fill="url(#paint1_linear)"/>
<path d="M165.505 15.9504C164.685 16.4693 163.966 17.1235 163.379 17.8833C163.251 18.0458 163.137 18.204 163.031 18.3665C162.737 18.8216 162.499 19.3081 162.321 19.8162C162.111 20.4416 162.007 21.0958 162.012 21.7534C162.018 22.4085 162.12 23.0594 162.316 23.6863C162.409 24.025 162.546 24.3511 162.722 24.657C162.867 24.8899 163.026 25.1141 163.198 25.3284C160.689 26.1965 157.946 26.1965 155.437 25.3284C155.609 25.1141 155.768 24.8899 155.913 24.657C156.089 24.3511 156.226 24.025 156.319 23.6863C156.517 23.0599 156.619 22.4087 156.623 21.7534C156.628 21.0958 156.524 20.4416 156.314 19.8162C156.138 19.3074 155.899 18.8207 155.604 18.3665C155.498 18.204 155.384 18.0458 155.256 17.8833C154.669 17.1235 153.95 16.4693 153.13 15.9504H165.505Z" fill="#E5E5E5"/>
<path d="M170.797 31.4269C170.197 30.5759 169.046 29.7253 167.789 28.8743L167.768 28.8602L167.741 28.8418C167.106 28.4142 166.447 27.9866 165.817 27.5589C165.181 27.1286 164.573 26.6595 163.998 26.1545C163.954 26.1139 163.91 26.0729 163.866 26.0323C163.852 26.0199 163.841 26.007 163.828 25.9946C160.933 27.1213 157.701 27.1213 154.806 25.9946C154.792 26.0075 154.781 26.0199 154.768 26.0323C154.724 26.075 154.679 26.1139 154.635 26.1545C154.06 26.6594 153.453 27.1285 152.817 27.5589L152.648 27.6722L152.636 27.6808L152.623 27.6893C152.39 27.8463 152.155 28.0028 151.917 28.1597C150.273 29.2493 148.603 30.3406 147.834 31.4285C147.732 31.5642 147.639 31.7061 147.555 31.8532L147.549 31.8622C147.281 32.3195 147.139 32.8368 147.139 33.3632C147.075 35.1506 147.383 36.9321 148.043 38.6021C148.075 38.6833 148.105 38.7642 148.138 38.845L148.146 38.8668L148.157 38.892C148.194 38.984 148.225 39.0755 148.265 39.1674C148.887 40.563 149.71 41.8659 150.71 43.0371C151.262 43.6756 151.852 44.2833 152.476 44.8571C153.313 45.6199 154.221 46.3057 155.188 46.9059H163.439C165.131 45.8505 166.643 44.545 167.918 43.0366C168.717 42.0968 169.405 41.0731 169.969 39.9846L169.973 39.9778C169.98 39.9637 169.987 39.9491 169.994 39.935L170.013 39.8983C170.064 39.7969 170.116 39.6951 170.165 39.5938C170.179 39.5655 170.191 39.5378 170.204 39.5083C170.258 39.3941 170.313 39.2799 170.363 39.1661C171.173 37.3349 171.557 35.3533 171.488 33.3619C171.484 32.6606 171.241 31.9804 170.797 31.4269Z" fill="#E5E5E5"/>
<path d="M119.19 46.9046C117.968 46.2797 116.815 45.5346 115.75 44.6809C115.309 44.3105 114.857 43.9402 114.491 43.569C114.114 43.2182 113.759 42.847 113.426 42.4572C112.273 41.1642 111.419 39.6481 110.918 38.0098C110.493 36.5637 110.412 35.0432 110.681 33.5624C111.01 31.9724 111.659 30.461 112.592 29.115C113.563 27.6333 114.788 26.1511 115.881 24.6677C116.153 24.2973 116.422 23.927 116.662 23.5558C116.916 23.1855 117.155 22.8151 117.371 22.444C117.793 21.7319 118.156 20.9883 118.456 20.2203C119.024 18.7385 119.343 17.2568 119.023 15.775C118.856 14.9849 118.541 14.2311 118.093 13.5513C117.518 12.675 116.769 11.919 115.888 11.3276H130.592C129.712 11.9192 128.962 12.6752 128.387 13.5513C127.939 14.2311 127.624 14.9849 127.457 15.775C127.137 17.2568 127.457 18.7385 128.024 20.2203C128.324 20.9884 128.687 21.732 129.109 22.444C129.325 22.8147 129.564 23.1851 129.818 23.5558C130.058 23.9266 130.327 24.2969 130.6 24.6677C131.692 26.1494 132.917 27.6316 133.888 29.115C134.821 30.4609 135.471 31.9723 135.8 33.5624C136.068 35.0432 135.987 36.5637 135.563 38.0098C135.062 39.6481 134.207 41.1642 133.055 42.4572C132.721 42.8469 132.366 43.2181 131.99 43.569C131.623 43.9398 131.172 44.3101 130.73 44.6809C129.666 45.5345 128.514 46.2796 127.292 46.9046H119.19Z" fill="url(#paint2_radial)"/>
<path d="M121.797 32.6883C121.603 34.2064 114.529 37.2511 110.538 34.7794C110.56 34.3735 110.609 33.9693 110.683 33.5692C111.011 31.979 111.66 30.4674 112.593 29.1218C113.307 28.0314 114.163 26.9367 115.001 25.8462C115.234 26.6189 115.579 27.3559 116.024 28.0357C118.186 31.3199 121.908 31.8459 121.797 32.6883Z" fill="#ADBEC7"/>
<path d="M135.799 33.5695C136.063 35.0283 135.988 36.5258 135.579 37.9527C130.326 38.8807 123.045 42.6695 121.872 40.9761C121.078 39.83 123.685 37.0247 123.971 36.6869C127.398 32.6672 133.193 32.7655 135.684 33.0264C135.728 33.206 135.768 33.3899 135.799 33.5695Z" fill="#ADBEC7"/>
<path d="M117.114 45.68C116.616 45.3508 116.166 45.0172 115.751 44.6837C115.31 44.3116 114.86 43.9396 114.494 43.5718C114.118 43.2207 113.761 42.8495 113.427 42.46C112.829 41.7754 112.304 41.0332 111.862 40.2448C113.612 39.6932 115.368 38.4103 116.549 39.0859C117.475 39.6162 117.987 41.3054 117.114 45.68Z" fill="#ADBEC7"/>
<path d="M128.253 20.7918C126.203 20.7747 124.73 20.0648 124.496 19.2395C124.24 18.3372 125.325 16.7977 127.46 15.7585C127.46 15.7671 127.455 15.7756 127.455 15.7842C127.138 17.2681 127.455 18.7477 128.024 20.2316C128.095 20.4198 128.174 20.6036 128.253 20.7918Z" fill="#ADBEC7"/>
<path d="M133.281 28.2352C127.631 30.1681 123.023 30.275 121.422 28.1796C120.059 26.3921 120.681 22.7572 121.797 22.4365C122.52 22.2269 123.098 23.5184 124.571 24.3266C126.313 25.2802 128.443 25.0793 130.445 24.4677C130.498 24.5362 130.546 24.6089 130.599 24.6773C131.477 25.8631 132.438 27.0519 133.281 28.2352Z" fill="#ADBEC7"/>
<path d="M133.539 42.9548H112.942C112.334 42.9548 111.84 43.4335 111.84 44.0239V53.2202C111.84 53.8106 112.334 54.2892 112.942 54.2892H133.539C134.148 54.2892 134.642 53.8106 134.642 53.2202V44.0239C134.642 43.4335 134.148 42.9548 133.539 42.9548Z" fill="url(#paint3_linear)"/>
<path d="M117.683 47.7431L119.074 47.9376C119.115 47.9435 119.155 47.9606 119.187 47.9869C119.219 48.0132 119.243 48.0477 119.256 48.0866C119.269 48.1254 119.271 48.167 119.26 48.2067C119.25 48.2463 119.229 48.2824 119.199 48.311L118.194 49.2629C118.168 49.2876 118.148 49.3182 118.137 49.352C118.125 49.3857 118.123 49.4216 118.129 49.4566L118.368 50.7994C118.375 50.8396 118.37 50.8811 118.355 50.919C118.339 50.9569 118.312 50.9897 118.278 51.0137C118.244 51.0378 118.204 51.0521 118.162 51.055C118.12 51.058 118.078 51.0494 118.04 51.0303L116.796 50.3974C116.764 50.3809 116.728 50.3722 116.691 50.3722C116.655 50.3722 116.619 50.3809 116.586 50.3974L115.343 51.0324C115.306 51.0514 115.264 51.0599 115.222 51.057C115.18 51.0541 115.14 51.0398 115.106 51.0159C115.072 50.9919 115.045 50.9591 115.029 50.9213C115.013 50.8835 115.009 50.8422 115.016 50.8019L115.252 49.4587C115.258 49.4237 115.255 49.3878 115.244 49.3541C115.233 49.3203 115.213 49.2898 115.187 49.265L114.179 48.3152C114.149 48.2867 114.128 48.2506 114.118 48.2109C114.108 48.1713 114.109 48.1297 114.122 48.0909C114.135 48.052 114.159 48.0175 114.191 47.9911C114.224 47.9647 114.263 47.9475 114.304 47.9415L115.695 47.7443C115.731 47.7392 115.765 47.7256 115.795 47.7048C115.824 47.6839 115.848 47.6564 115.865 47.6246L116.485 46.4024C116.504 46.3658 116.532 46.335 116.568 46.3135C116.604 46.2919 116.645 46.2805 116.687 46.2805C116.73 46.2805 116.771 46.2919 116.807 46.3135C116.842 46.335 116.871 46.3658 116.89 46.4024L117.513 47.6238C117.529 47.6555 117.553 47.6829 117.583 47.7037C117.612 47.7245 117.647 47.738 117.683 47.7431Z" fill="white"/>
<path d="M124.235 47.7431L125.625 47.9376C125.667 47.9435 125.706 47.9605 125.738 47.9868C125.771 48.0131 125.795 48.0476 125.808 48.0864C125.821 48.1253 125.822 48.1669 125.812 48.2066C125.802 48.2462 125.781 48.2824 125.751 48.311L124.745 49.2629C124.719 49.2877 124.7 49.3183 124.689 49.352C124.677 49.3858 124.675 49.4217 124.681 49.4566L124.92 50.7994C124.927 50.8396 124.922 50.8809 124.906 50.9187C124.89 50.9565 124.864 50.9893 124.83 51.0133C124.796 51.0373 124.756 51.0516 124.714 51.0546C124.672 51.0576 124.63 51.0492 124.592 51.0303L123.348 50.3974C123.315 50.3809 123.279 50.3722 123.243 50.3722C123.206 50.3722 123.17 50.3809 123.138 50.3974L121.895 51.0324C121.857 51.0514 121.815 51.0599 121.773 51.057C121.731 51.0541 121.691 51.0398 121.657 51.0159C121.623 50.9919 121.596 50.9591 121.581 50.9213C121.565 50.8835 121.56 50.8422 121.567 50.8019L121.803 49.4587C121.81 49.4237 121.807 49.3878 121.795 49.3541C121.784 49.3203 121.764 49.2898 121.738 49.265L120.731 48.3152C120.701 48.2868 120.68 48.2506 120.669 48.2109C120.659 48.1713 120.661 48.1296 120.674 48.0907C120.687 48.0518 120.711 48.0172 120.743 47.9908C120.775 47.9645 120.814 47.9474 120.856 47.9415L122.246 47.7443C122.282 47.7393 122.317 47.7257 122.346 47.7049C122.376 47.684 122.4 47.6565 122.416 47.6246L123.037 46.4024C123.056 46.3658 123.084 46.335 123.12 46.3135C123.156 46.2919 123.197 46.2805 123.239 46.2805C123.281 46.2805 123.323 46.2919 123.358 46.3135C123.394 46.335 123.423 46.3658 123.442 46.4024L124.064 47.6238C124.081 47.6555 124.105 47.683 124.134 47.7038C124.164 47.7246 124.198 47.738 124.235 47.7431Z" fill="white"/>
<path d="M278.822 0H274.474C275.819 0 277.109 0.518102 278.06 1.44036C279.011 2.36263 279.545 3.6135 279.545 4.91778V53.2403C279.545 54.5446 279.011 55.7954 278.06 56.7177C277.109 57.6399 275.819 58.1581 274.474 58.1581H278.822C280.184 58.158 281.489 57.6335 282.452 56.7C283.414 55.7666 283.955 54.5005 283.955 53.1804V4.97763C283.955 3.65747 283.415 2.39139 282.452 1.4579C281.489 0.524414 280.184 0 278.822 0Z" fill="url(#paint4_linear)"/>
<path d="M274.137 0.000244141H198.726C195.925 0.000244141 193.654 2.20201 193.654 4.91802V53.2405C193.654 55.9566 195.925 58.1583 198.726 58.1583H274.137C276.938 58.1583 279.209 55.9566 279.209 53.2405V4.91802C279.209 2.20201 276.938 0.000244141 274.137 0.000244141Z" fill="#F1F1F1"/>
<path d="M278.547 0H274.137C275.482 0 276.772 0.518102 277.723 1.44036C278.674 2.36263 279.209 3.6135 279.209 4.91778V53.2403C279.209 54.5446 278.674 55.7954 277.723 56.7177C276.772 57.6399 275.482 58.1581 274.137 58.1581H278.547C279.892 58.1581 281.182 57.6399 282.133 56.7177C283.084 55.7954 283.619 54.5446 283.619 53.2403V4.91778C283.619 3.6135 283.084 2.36263 282.133 1.44036C281.182 0.518102 279.892 0 278.547 0Z" fill="url(#paint5_linear)"/>
<path d="M268.551 24.3524L267.652 22.4101C267.56 22.2116 267.422 22.0363 267.25 21.8974C267.077 21.7586 266.874 21.66 266.656 21.6092C266.438 21.5584 266.211 21.5567 265.992 21.6044C265.773 21.6521 265.568 21.7477 265.394 21.8841C261.9 24.6095 259.109 28.0869 257.242 32.0404L254.372 38.1175C254.109 38.6741 253.63 39.1074 253.039 39.3224C252.448 39.5375 251.793 39.5169 251.218 39.2652L248.504 38.0785L243.402 42.3574C242.951 42.7368 242.594 43.2096 242.358 43.7409C242.121 44.2722 242.01 44.8483 242.035 45.4266H257.563L261.155 35.0962C261.212 34.9325 261.325 34.7926 261.475 34.6994C261.625 34.6062 261.803 34.5655 261.98 34.5839C262.157 34.6023 262.323 34.6787 262.449 34.8006C262.575 34.9224 262.655 35.0824 262.675 35.254L263.854 45.4266H266.204V41.769C266.204 38.9642 266.765 36.1861 267.857 33.5888L268.683 31.6217C269.169 30.4644 269.408 29.2234 269.386 27.9739C269.363 26.7244 269.079 25.4924 268.551 24.3524Z" fill="#E5E5E5"/>
<path d="M238.183 11.5259H229.605C229.382 11.5259 229.163 11.5804 228.968 11.6845C228.772 11.7885 228.607 11.9387 228.488 12.1212L225.322 16.9534C223.624 19.5457 220.981 21.4221 217.92 22.2086L213.543 23.3333C211.474 23.8649 209.539 24.8035 207.86 26.0909C206.18 27.3783 204.792 28.987 203.78 30.8168H221.756C223.29 30.8168 224.805 30.4853 226.191 29.8465C227.577 29.2076 228.799 28.2774 229.768 27.1234L232.899 23.3944C233.159 23.0849 233.503 22.853 233.893 22.7252C234.283 22.5975 234.702 22.5792 235.102 22.6724C235.502 22.7657 235.867 22.9667 236.154 23.2522C236.442 23.5378 236.64 23.8963 236.726 24.2865L238.145 30.6907H240.876L239.5 12.7126C239.475 12.3902 239.325 12.0889 239.081 11.8689C238.837 11.6489 238.516 11.5264 238.183 11.5259Z" fill="url(#paint6_linear)"/>
<path d="M234.618 22.6184C235.113 22.6218 235.592 22.789 235.975 23.0923C236.358 23.3956 236.623 23.8169 236.725 24.2862L238.144 30.6904H240.874L240.257 22.5979L234.618 22.6184Z" fill="url(#paint7_linear)"/>
<path d="M238.144 30.6919H240.874L240.77 29.3269H237.842L238.144 30.6919Z" fill="black"/>
<path d="M221.656 30.1518H225.449C227.136 29.5263 228.625 28.4825 229.767 27.1246L232.898 23.3956C233.194 23.0386 233.604 22.7865 234.063 22.6785L234.107 22.5994H231.928C231.173 22.5993 230.431 22.7914 229.776 23.1564C229.121 23.5213 228.577 24.0465 228.197 24.6794C227.526 25.797 226.615 26.7612 225.525 27.5065L221.656 30.1518Z" fill="url(#paint8_linear)"/>
<path d="M204.809 29.3269C204.424 29.7955 204.08 30.2943 203.78 30.8181H221.756C223.671 30.818 225.548 30.3018 227.178 29.3269H204.809Z" fill="black"/>
<path d="M232.626 27.2793H212.029C211.42 27.2793 210.927 27.7579 210.927 28.3484V37.5446C210.927 38.1351 211.42 38.6137 212.029 38.6137H232.626C233.235 38.6137 233.729 38.1351 233.729 37.5446V28.3484C233.729 27.7579 233.235 27.2793 232.626 27.2793Z" fill="url(#paint9_linear)"/>
<path d="M216.769 32.0671L218.16 32.2616C218.201 32.2675 218.24 32.2846 218.273 32.3109C218.305 32.3372 218.329 32.3717 218.342 32.4106C218.355 32.4494 218.356 32.491 218.346 32.5306C218.336 32.5703 218.315 32.6064 218.285 32.635L217.28 33.5869C217.254 33.6116 217.234 33.6422 217.223 33.6759C217.211 33.7097 217.209 33.7456 217.215 33.7806L217.454 35.1233C217.461 35.1636 217.457 35.2051 217.441 35.2429C217.425 35.2808 217.398 35.3136 217.364 35.3376C217.33 35.3617 217.29 35.376 217.248 35.3789C217.206 35.3818 217.164 35.3733 217.126 35.3543L215.882 34.7214C215.85 34.705 215.814 34.6963 215.777 34.6963C215.741 34.6963 215.705 34.705 215.672 34.7214L214.429 35.3568C214.392 35.3758 214.35 35.3844 214.308 35.3814C214.266 35.3785 214.226 35.3642 214.192 35.3403C214.157 35.3163 214.131 35.2836 214.115 35.2458C214.099 35.208 214.094 35.1666 214.102 35.1264L214.338 33.7832C214.344 33.7482 214.341 33.7122 214.33 33.6785C214.318 33.6448 214.299 33.6142 214.273 33.5894L213.265 32.6392C213.235 32.6107 213.214 32.5746 213.204 32.535C213.194 32.4954 213.195 32.4538 213.208 32.415C213.221 32.3762 213.245 32.3417 213.277 32.3153C213.309 32.289 213.349 32.2719 213.39 32.2659L214.781 32.0688C214.817 32.0637 214.851 32.0502 214.881 32.0293C214.91 32.0084 214.934 31.9809 214.95 31.949L215.571 30.7264C215.59 30.6898 215.618 30.659 215.654 30.6375C215.69 30.6159 215.731 30.6045 215.773 30.6045C215.815 30.6045 215.857 30.6159 215.893 30.6375C215.928 30.659 215.957 30.6898 215.976 30.7264L216.599 31.9473C216.615 31.9792 216.639 32.0067 216.669 32.0276C216.698 32.0484 216.733 32.062 216.769 32.0671Z" fill="white"/>
<path d="M223.321 32.0674L224.712 32.2619C224.754 32.2677 224.793 32.2848 224.825 32.3111C224.857 32.3373 224.881 32.3719 224.894 32.4107C224.907 32.4496 224.909 32.4912 224.899 32.5309C224.889 32.5705 224.868 32.6067 224.837 32.6353L223.832 33.5872C223.806 33.612 223.786 33.6426 223.775 33.6763C223.764 33.7101 223.761 33.746 223.768 33.7809L224.006 35.1236C224.013 35.1639 224.009 35.2052 223.993 35.243C223.977 35.2808 223.951 35.3136 223.916 35.3376C223.882 35.3616 223.842 35.3759 223.8 35.3789C223.758 35.3819 223.716 35.3735 223.679 35.3546L222.435 34.7217C222.402 34.7052 222.366 34.6966 222.33 34.6966C222.293 34.6966 222.257 34.7052 222.225 34.7217L220.981 35.3571C220.944 35.3761 220.902 35.3846 220.86 35.3817C220.818 35.3788 220.778 35.3645 220.744 35.3406C220.71 35.3166 220.683 35.2838 220.667 35.246C220.651 35.2082 220.647 35.1669 220.654 35.1266L220.89 33.7834C220.896 33.7485 220.893 33.7126 220.882 33.6789C220.871 33.6452 220.851 33.6146 220.825 33.5897L219.818 32.64C219.788 32.6115 219.767 32.5754 219.756 32.5357C219.746 32.4961 219.748 32.4545 219.761 32.4157C219.774 32.3769 219.798 32.3424 219.83 32.316C219.862 32.2897 219.901 32.2726 219.943 32.2666L221.333 32.0695C221.369 32.0644 221.403 32.0509 221.433 32.03C221.463 32.0091 221.486 31.9816 221.503 31.9497L222.124 30.7272C222.142 30.6906 222.171 30.6597 222.207 30.6382C222.243 30.6166 222.284 30.6052 222.326 30.6052C222.368 30.6052 222.409 30.6166 222.445 30.6382C222.481 30.6597 222.51 30.6906 222.528 30.7272L223.151 31.9481C223.167 31.9798 223.191 32.0072 223.221 32.028C223.251 32.0488 223.285 32.0623 223.321 32.0674Z" fill="white"/>
<path d="M228.88 30.6045C228.837 30.604 228.795 30.6151 228.759 30.6367C228.723 30.6583 228.694 30.6894 228.675 30.7264L228.055 31.949C228.039 31.9808 228.015 32.0084 227.985 32.0292C227.956 32.0501 227.921 32.0637 227.885 32.0687L226.495 32.2659C226.453 32.2717 226.414 32.2888 226.382 32.3151C226.349 32.3415 226.325 32.3761 226.313 32.415C226.3 32.4538 226.298 32.4954 226.308 32.5351C226.319 32.5747 226.34 32.6108 226.37 32.6392L227.377 33.5894C227.403 33.6141 227.423 33.6447 227.434 33.6784C227.446 33.7122 227.448 33.7481 227.442 33.7831L227.206 35.1263C227.199 35.1665 227.204 35.2079 227.22 35.2457C227.235 35.2835 227.262 35.3162 227.296 35.3402C227.33 35.3642 227.37 35.3784 227.412 35.3814C227.454 35.3843 227.496 35.3758 227.534 35.3568L228.777 34.7213C228.809 34.7054 228.844 34.6969 228.88 34.6965V30.6045Z" fill="white"/>
<path d="M242.17 46.2812C242.184 46.3321 242.19 46.3839 242.207 46.4348L242.565 47.541H256.828L257.266 46.2812H242.17Z" fill="#E5E5E5"/>
<path d="M263.953 46.2812L264.099 47.541H266.204V46.2812H263.953Z" fill="#E5E5E5"/>
<path d="M118.278 168.14V70.1058C118.278 67.3898 116.008 65.188 113.207 65.188H5.51264C2.71172 65.188 0.441116 67.3898 0.441116 70.1058V168.14C0.441116 170.856 2.71172 173.058 5.51264 173.058H113.207C116.008 173.058 118.278 170.856 118.278 168.14Z" fill="#F1F1F1"/>
<path d="M115.84 65.321H111.43C112.757 65.3042 114.037 65.7993 114.988 66.6975C115.939 67.5956 116.483 68.8232 116.501 70.1104V168.401C116.483 169.688 115.939 170.916 114.988 171.814C114.037 172.712 112.757 173.207 111.43 173.191H115.84C117.167 173.207 118.447 172.712 119.398 171.814C120.349 170.916 120.893 169.688 120.911 168.401V70.1104C120.893 68.8232 120.349 67.5956 119.398 66.6975C118.447 65.7993 117.167 65.3042 115.84 65.321Z" fill="url(#paint10_linear)"/>
<path d="M109.959 107.32L101.643 115.335V115.372L102.66 116.355C102.739 116.432 102.847 116.475 102.958 116.475C103.07 116.475 103.177 116.432 103.256 116.355L110.992 108.899C111.032 108.861 111.063 108.816 111.084 108.766C111.105 108.717 111.116 108.663 111.116 108.609C111.116 108.556 111.105 108.502 111.084 108.453C111.063 108.403 111.032 108.358 110.992 108.32L109.959 107.32Z" fill="#E5E5E5"/>
<path d="M57.4453 109.442L65.1813 116.899C65.2605 116.975 65.3676 117.018 65.4792 117.018C65.5909 117.018 65.698 116.975 65.7771 116.899L66.7941 115.913V115.876L58.4785 107.86L57.4444 108.862C57.4051 108.901 57.374 108.946 57.3528 108.996C57.3316 109.045 57.3207 109.099 57.3208 109.153C57.3209 109.206 57.3319 109.26 57.3533 109.31C57.3746 109.359 57.4059 109.404 57.4453 109.442Z" fill="#E5E5E5"/>
<path d="M99.7109 97.3832C99.2745 96.9603 98.7639 96.6161 98.2031 96.3667C96.147 95.4535 93.9744 94.8103 91.7429 94.4543C90.6845 94.861 87.7183 95.1544 84.2189 95.1544C80.9154 95.1544 78.0841 94.8931 76.885 94.5219C74.7817 94.8859 72.7342 95.5058 70.7908 96.3667C70.23 96.6161 69.7194 96.9603 69.283 97.3832L59.0588 107.297L67.3731 115.31L67.3938 115.331L70.1884 112.621V142.111L98.8073 142.926V112.62L101.045 114.79L101.066 114.77L109.38 106.757L99.7109 97.3832ZM95.2166 131.832H73.2208V103.045H95.2166V131.832Z" fill="#E5E5E5"/>
<path d="M94.3955 103.841H74.0419V131.035H94.3955V103.841Z" fill="#E5E5E5"/>
<path d="M48.1104 78.1699H16.7445L14.3698 134.348H26.5657L32.2356 93.8559L37.125 134.348H49.5441L48.1104 78.1699Z" fill="url(#paint11_radial)"/>
<path d="M48.2552 83.8271H42.8441V91.9949L48.5247 94.3743L48.2552 83.8271Z" fill="url(#paint12_linear)"/>
<path d="M48.332 86.8372H42.8441V83.8271H48.2552" stroke="#BF6A0E" stroke-miterlimit="10"/>
<path d="M16.5058 83.8271H21.6761V91.9949L16.0312 94.3743L16.5058 83.8271Z" fill="url(#paint13_linear)"/>
<path d="M16.3788 86.8372H21.6761V83.8271H16.5058" stroke="#BF6A0E" stroke-miterlimit="10"/>
<path d="M32.236 93.8563V81.5361H29.7545L28.1439 88.6926L29.4612 93.8563H32.236ZM32.236 93.8563L33.5722 104.921" stroke="#BF6A0E" stroke-miterlimit="10"/>
<path d="M17.7362 86.8376L16.0339 134.349" stroke="#BF6A0E" stroke-miterlimit="10"/>
<path d="M46.7863 86.8376L47.8923 134.349" stroke="#BF6A0E" stroke-miterlimit="10"/>
<path d="M48.1902 81.2998L48.1104 78.1699H16.7445L16.6122 81.2998H48.1902Z" fill="url(#paint14_radial)"/>
<path d="M32.2361 82.4501V78.1699" stroke="#BF6A0E" stroke-miterlimit="10"/>
<path d="M54.7597 51.3226V69.7151C54.7597 70.2821 54.5274 70.826 54.1139 71.227C53.7004 71.6279 53.1395 71.8532 52.5547 71.8532H37.5694L32.3427 81.1145C32.3047 81.1818 32.2487 81.238 32.1806 81.2772C32.1126 81.3163 32.0349 81.337 31.9557 81.337C31.8765 81.337 31.7988 81.3163 31.7307 81.2772C31.6626 81.238 31.6067 81.1818 31.5687 81.1145L26.3459 71.8536H11.3607C10.7758 71.8536 10.215 71.6284 9.80148 71.2274C9.38796 70.8264 9.15564 70.2826 9.15564 69.7155V51.323C9.15564 50.7559 9.38796 50.2121 9.80148 49.8111C10.215 49.4101 10.7758 49.1848 11.3607 49.1848H52.5547C53.1394 49.1848 53.7002 49.41 54.1137 49.8109C54.5272 50.2118 54.7596 50.7556 54.7597 51.3226Z" fill="url(#paint15_linear)"/>
<path d="M20.841 58.7604L23.622 59.1499C23.7054 59.1615 23.7838 59.1956 23.8483 59.2481C23.9127 59.3007 23.9608 59.3697 23.9869 59.4474C24.013 59.525 24.0162 59.6082 23.996 59.6876C23.9759 59.7669 23.9332 59.8391 23.8729 59.8962L21.8624 61.8C21.8101 61.8495 21.7709 61.9107 21.7484 61.9782C21.7259 62.0457 21.7207 62.1175 21.7332 62.1874L22.2108 64.873C22.2251 64.9535 22.2158 65.0362 22.1841 65.1119C22.1524 65.1876 22.0995 65.2531 22.0313 65.3012C21.9632 65.3492 21.8826 65.3778 21.7986 65.3838C21.7146 65.3897 21.6305 65.3728 21.5559 65.3348L19.0678 64.069C19.003 64.0361 18.9308 64.0188 18.8576 64.0188C18.7844 64.0188 18.7123 64.0361 18.6475 64.069L16.1611 65.3391C16.0866 65.3772 16.0027 65.3944 15.9186 65.3886C15.8346 65.3829 15.754 65.3544 15.6858 65.3065C15.6176 65.2585 15.5645 65.193 15.5327 65.1174C15.5009 65.0418 15.4916 64.959 15.5058 64.8785L15.9786 62.1921C15.9904 62.1226 15.9848 62.0513 15.9621 61.9843C15.9395 61.9173 15.9005 61.8565 15.8485 61.8072L13.8344 59.9069C13.774 59.85 13.7312 59.7778 13.7109 59.6985C13.6906 59.6193 13.6936 59.5361 13.7195 59.4584C13.7455 59.3807 13.7933 59.3116 13.8576 59.2589C13.922 59.2062 14.0002 59.172 14.0836 59.1602L16.8641 58.7659C16.9365 58.7557 17.0053 58.7285 17.0645 58.6867C17.1236 58.6449 17.1714 58.5898 17.2037 58.526L18.4451 56.0812C18.4824 56.008 18.5401 55.9464 18.6116 55.9033C18.6832 55.8602 18.7657 55.8374 18.8499 55.8374C18.9341 55.8374 19.0167 55.8602 19.0882 55.9033C19.1598 55.9464 19.2175 56.008 19.2548 56.0812L20.5006 58.5235C20.5334 58.5867 20.5815 58.6413 20.6408 58.6825C20.7001 58.7238 20.7688 58.7505 20.841 58.7604Z" fill="white"/>
<path d="M33.9456 58.7604L36.7265 59.1499C36.8099 59.1615 36.8883 59.1956 36.9528 59.2481C37.0172 59.3007 37.0653 59.3697 37.0914 59.4474C37.1175 59.525 37.1207 59.6082 37.1005 59.6876C37.0804 59.7669 37.0378 59.8391 36.9774 59.8962L34.9669 61.8C34.9146 61.8495 34.8755 61.9107 34.8529 61.9782C34.8304 62.0457 34.8252 62.1175 34.8377 62.1874L35.3153 64.873C35.3296 64.9535 35.3203 65.0362 35.2886 65.1119C35.2569 65.1876 35.204 65.2531 35.1358 65.3012C35.0677 65.3492 34.9871 65.3778 34.9031 65.3838C34.8191 65.3897 34.735 65.3728 34.6604 65.3348L32.1723 64.069C32.1075 64.0361 32.0353 64.0188 31.9621 64.0188C31.8889 64.0188 31.8168 64.0361 31.752 64.069L29.2656 65.3391C29.1911 65.3772 29.1072 65.3944 29.0231 65.3886C28.9391 65.3829 28.8585 65.3544 28.7903 65.3065C28.7221 65.2585 28.6691 65.193 28.6373 65.1174C28.6055 65.0418 28.5961 64.959 28.6103 64.8785L29.0831 62.1921C29.0946 62.1224 29.0886 62.051 29.0656 61.9839C29.0426 61.9169 29.0032 61.8563 28.9508 61.8072L26.9367 59.9069C26.8763 59.85 26.8335 59.7778 26.8132 59.6985C26.7929 59.6193 26.7959 59.5361 26.8218 59.4584C26.8478 59.3807 26.8956 59.3116 26.9599 59.2589C27.0243 59.2062 27.1025 59.172 27.1859 59.1602L29.9664 58.7659C30.0388 58.7557 30.1076 58.7285 30.1668 58.6867C30.2259 58.6449 30.2737 58.5898 30.306 58.526L31.5474 56.0812C31.5847 56.008 31.6424 55.9464 31.7139 55.9033C31.7855 55.8602 31.868 55.8374 31.9522 55.8374C32.0364 55.8374 32.119 55.8602 32.1905 55.9033C32.2621 55.9464 32.3197 56.008 32.3571 56.0812L33.6029 58.5235C33.6359 58.587 33.6843 58.6417 33.744 58.683C33.8037 58.7243 33.8729 58.7508 33.9456 58.7604Z" fill="white"/>
<path d="M47.0496 58.7604L49.8305 59.1499C49.9139 59.1615 49.9923 59.1956 50.0568 59.2481C50.1212 59.3007 50.1693 59.3697 50.1954 59.4474C50.2215 59.525 50.2247 59.6082 50.2045 59.6876C50.1844 59.7669 50.1418 59.8391 50.0815 59.8962L48.0709 61.8C48.0186 61.8495 47.9795 61.9107 47.9569 61.9782C47.9344 62.0457 47.9292 62.1175 47.9417 62.1874L48.4193 64.873C48.4336 64.9535 48.4243 65.0362 48.3926 65.1119C48.3609 65.1876 48.308 65.2531 48.2399 65.3012C48.1717 65.3492 48.0911 65.3778 48.0071 65.3838C47.9231 65.3897 47.839 65.3728 47.7644 65.3348L45.2763 64.069C45.2115 64.0361 45.1394 64.0188 45.0662 64.0188C44.993 64.0188 44.9208 64.0361 44.856 64.069L42.3696 65.3391C42.2952 65.3772 42.2112 65.3944 42.1271 65.3886C42.0431 65.3829 41.9625 65.3544 41.8943 65.3065C41.8261 65.2585 41.7731 65.193 41.7413 65.1174C41.7095 65.0418 41.7001 64.959 41.7143 64.8785L42.1871 62.1921C42.1986 62.1224 42.1926 62.051 42.1696 61.9839C42.1466 61.9169 42.1072 61.8563 42.0548 61.8072L40.0407 59.9069C39.9803 59.85 39.9375 59.7778 39.9172 59.6985C39.8969 59.6193 39.8999 59.5361 39.9258 59.4584C39.9518 59.3807 39.9996 59.3116 40.0639 59.2589C40.1283 59.2062 40.2065 59.172 40.2899 59.1602L43.0682 58.7659C43.1406 58.7557 43.2094 58.7285 43.2686 58.6867C43.3277 58.6449 43.3755 58.5898 43.4078 58.526L44.6492 56.0812C44.6865 56.008 44.7442 55.9464 44.8157 55.9033C44.8873 55.8602 44.9698 55.8374 45.054 55.8374C45.1382 55.8374 45.2208 55.8602 45.2923 55.9033C45.3639 55.9464 45.4215 56.008 45.4589 56.0812L46.7047 58.5235C46.7379 58.5872 46.7867 58.6422 46.8468 58.6835C46.9069 58.7248 46.9765 58.7511 47.0496 58.7604Z" fill="white"/>
<path d="M47.9631 148.436H40.5508C38.2493 148.436 36.0421 149.323 34.4147 150.901C32.7874 152.479 31.8732 154.619 31.8732 156.851V157.877H44.9193V160.149H56.6416V156.853C56.6419 155.747 56.4176 154.653 55.9815 153.632C55.5455 152.611 54.9063 151.683 54.1004 150.901C53.2945 150.12 52.3377 149.5 51.2846 149.077C50.2316 148.654 49.1029 148.436 47.9631 148.436Z" fill="#E5E5E5"/>
<path d="M43.9411 158.824H23.7631V160.147H43.9411V158.824Z" fill="#E5E5E5"/>
<path d="M44.1235 146.54H44.3881C44.5167 146.539 44.644 146.564 44.7629 146.611C44.8817 146.659 44.9897 146.729 45.0806 146.817C45.1716 146.905 45.2438 147.01 45.293 147.125C45.3423 147.24 45.3676 147.363 45.3676 147.488H43.1454C43.1454 147.236 43.2484 146.995 43.4319 146.817C43.6153 146.639 43.8641 146.54 44.1235 146.54Z" fill="#E5E5E5"/>
<path d="M278.382 111.875V68.7174C278.382 66.8419 276.814 65.3215 274.88 65.3215L131.568 65.3215C129.634 65.3215 128.066 66.8419 128.066 68.7174V111.875C128.066 113.75 129.634 115.27 131.568 115.27H274.88C276.814 115.27 278.382 113.75 278.382 111.875Z" fill="#F1F1F1"/>
<path d="M186.595 106.128H146.702L150.688 83.5406L152.064 86.2219C153.191 88.4415 154.844 90.3709 156.887 91.8523C158.931 93.3336 161.307 94.3247 163.821 94.7446L165.034 97.0495H168.231L169.449 94.7446C171.963 94.3247 174.339 93.3336 176.383 91.8523C178.426 90.3709 180.079 88.4415 181.206 86.2219L182.604 83.4936L186.595 106.128ZM152.854 85.8426L150.94 82.1136H155.024C155.309 79.3156 156.656 76.7203 158.805 74.8323C160.953 72.9443 163.749 71.8987 166.649 71.8987C169.548 71.8987 172.344 72.9443 174.493 74.8323C176.641 76.7203 177.989 79.3156 178.273 82.1136H182.326L180.417 85.8426C179.391 87.84 177.917 89.5893 176.103 90.962C174.289 92.3347 172.181 93.296 169.934 93.7751C170.02 93.5254 170.044 93.2595 170.003 92.9992C169.962 92.7389 169.859 92.4917 169.7 92.278C169.542 92.0642 169.333 91.8899 169.092 91.7696C168.85 91.6492 168.583 91.5862 168.311 91.5857H164.96C164.666 91.5851 164.377 91.658 164.12 91.7973C163.864 91.9367 163.649 92.1377 163.495 92.3811C163.364 92.5875 163.282 92.8197 163.254 93.0608C163.227 93.3019 163.255 93.5459 163.337 93.7751C161.089 93.296 158.981 92.3347 157.167 90.962C155.353 89.5893 153.88 87.84 152.854 85.8426ZM155.831 82.1136H177.462C177.178 79.5239 175.917 77.1276 173.92 75.3861C171.923 73.6446 169.332 72.681 166.646 72.681C163.961 72.681 161.37 73.6446 159.373 75.3861C157.376 77.1276 156.115 79.5239 155.831 82.1136ZM164.884 94.8857L165.572 96.1943H167.693L168.381 94.8857L168.871 93.9577L169.052 93.6157C169.117 93.4926 169.148 93.3553 169.142 93.2172C169.137 93.079 169.095 92.9445 169.021 92.8265C168.946 92.7086 168.842 92.611 168.718 92.5433C168.593 92.4756 168.453 92.4399 168.311 92.4397H164.959C164.817 92.4399 164.676 92.4756 164.552 92.5433C164.428 92.611 164.324 92.7086 164.249 92.8265C164.175 92.9445 164.133 93.079 164.128 93.2172C164.122 93.3553 164.153 93.4926 164.218 93.6157L164.399 93.9577V93.962L164.884 94.8857Z" fill="#E5E5E5"/>
<path d="M234.379 81.4177H204.267C203.682 81.4177 203.121 81.643 202.708 82.044C202.294 82.445 202.062 82.9888 202.062 83.5559L202.106 87.0877C202.108 87.295 202.189 87.4943 202.331 87.6486C202.474 87.803 202.67 87.9018 202.882 87.9268L213.506 89.1793C217.368 89.6368 221.274 89.6368 225.136 89.1793L235.764 87.9268C235.976 87.9017 236.171 87.8028 236.314 87.6485C236.457 87.4942 236.537 87.2949 236.539 87.0877L236.583 83.5559C236.583 82.9889 236.351 82.4451 235.937 82.0441C235.524 81.6432 234.963 81.4178 234.379 81.4177ZM219.323 88.8585C219.061 88.8585 218.805 88.7833 218.588 88.6423C218.37 88.5014 218.201 88.301 218.1 88.0666C218 87.8322 217.974 87.5742 218.025 87.3253C218.076 87.0765 218.202 86.8479 218.387 86.6685C218.572 86.4891 218.808 86.3669 219.065 86.3174C219.321 86.2679 219.587 86.2933 219.829 86.3904C220.071 86.4875 220.277 86.6519 220.423 86.8629C220.568 87.0739 220.646 87.3219 220.646 87.5756C220.646 87.9159 220.506 88.2422 220.258 88.4828C220.01 88.7234 219.674 88.8585 219.323 88.8585Z" fill="#E5E5E5"/>
<path d="M225.243 90.0285C221.31 90.4914 217.334 90.4914 213.401 90.0285L203.05 88.808C202.926 88.7934 202.8 88.8045 202.681 88.8405C202.562 88.8765 202.452 88.9367 202.359 89.017C202.265 89.0972 202.19 89.1958 202.139 89.3062C202.088 89.4166 202.061 89.5362 202.062 89.6573V97.0344C202.062 97.6015 202.294 98.1453 202.707 98.5463C203.121 98.9473 203.682 99.1726 204.267 99.1726H234.378C234.963 99.1726 235.524 98.9473 235.937 98.5463C236.351 98.1453 236.583 97.6015 236.583 97.0344V89.6568C236.583 89.5358 236.557 89.4162 236.505 89.3059C236.454 89.1956 236.379 89.097 236.286 89.0168C236.193 88.9366 236.083 88.8765 235.964 88.8405C235.844 88.8045 235.719 88.7934 235.595 88.808L225.243 90.0285Z" fill="#E5E5E5"/>
<path d="M278.207 168.273V127.522C278.207 124.806 275.936 122.604 273.136 122.604L132.962 122.604C130.161 122.604 127.891 124.806 127.891 127.522V168.273C127.891 170.99 130.161 173.191 132.962 173.191H273.136C275.936 173.191 278.207 170.99 278.207 168.273Z" fill="#F1F1F1"/>
<path d="M157.895 159.614C156.752 159.614 155.825 161.795 155.825 162.904C155.825 163.436 156.043 163.947 156.431 164.323C156.82 164.7 157.346 164.911 157.895 164.911C158.444 164.911 158.97 164.7 159.359 164.323C159.747 163.947 159.965 163.436 159.965 162.904C159.965 161.795 159.038 159.614 157.895 159.614Z" fill="#E5E5E5"/>
<path d="M159.807 155.523C160.245 154.499 159.743 153.325 158.687 152.901C157.631 152.477 156.42 152.963 155.983 153.987C155.546 155.011 156.047 156.185 157.103 156.609C158.159 157.033 159.37 156.547 159.807 155.523Z" fill="#E5E5E5"/>
<path d="M160.898 150.363C160.746 150.501 160.589 150.634 160.423 150.764C160.21 150.915 159.986 151.051 159.752 151.17C160.586 151.575 161.255 152.242 161.65 153.062C162.044 153.882 162.141 154.807 161.925 155.688C161.709 156.568 161.193 157.352 160.46 157.912C159.727 158.472 158.82 158.776 157.887 158.774C156.953 158.771 156.048 158.463 155.318 157.899C154.588 157.335 154.076 156.549 153.865 155.667C153.654 154.786 153.756 153.861 154.155 153.043C154.554 152.225 155.226 151.561 156.063 151.16C155.836 151.044 155.619 150.912 155.414 150.764L155.379 150.737C155.224 150.612 155.074 150.485 154.93 150.352C152.528 151.078 150.495 152.652 149.234 154.763C150.112 156.238 151.375 157.462 152.895 158.314C154.416 159.165 156.141 159.613 157.897 159.613C159.653 159.613 161.377 159.165 162.898 158.314C164.419 157.462 165.681 156.238 166.559 154.763C165.305 152.663 163.285 151.093 160.898 150.363Z" fill="#E5E5E5"/>
<path d="M161.777 139.669C161.837 137.73 161.616 135.791 161.12 133.911C160.876 132.989 160.489 132.108 159.974 131.297C159.849 131.102 159.706 130.919 159.546 130.749C159.398 130.58 159.233 130.426 159.053 130.289C158.735 130.013 158.324 129.86 157.897 129.861C157.471 129.862 157.06 130.016 156.743 130.293C156.564 130.43 156.399 130.584 156.251 130.753C156.093 130.923 155.949 131.106 155.821 131.298C155.295 132.104 154.9 132.983 154.649 133.905C154.13 135.783 153.902 137.726 153.972 139.669C154.003 140.638 154.093 141.604 154.242 142.562C154.397 143.507 154.63 144.439 154.936 145.348C155.215 146.226 155.625 147.059 156.154 147.82C156.277 147.994 156.413 148.159 156.563 148.312C156.696 148.458 156.843 148.591 157.004 148.708C157.262 148.898 157.572 149.01 157.895 149.03C158.214 148.997 158.517 148.879 158.771 148.688C158.928 148.569 159.072 148.436 159.202 148.289C159.349 148.137 159.484 147.972 159.603 147.798C160.123 147.036 160.53 146.207 160.811 145.336C161.117 144.428 161.35 143.5 161.51 142.558C161.657 141.601 161.746 140.636 161.777 139.669ZM163.168 139.669C163.231 141.744 162.987 143.816 162.445 145.823C162.16 146.873 161.708 147.874 161.104 148.789C160.941 149.032 160.757 149.261 160.556 149.476C160.348 149.706 160.116 149.915 159.865 150.1C159.299 150.522 158.609 150.759 157.895 150.778C157.185 150.748 156.502 150.504 155.941 150.08C155.694 149.893 155.466 149.682 155.261 149.452C155.062 149.239 154.881 149.01 154.721 148.768C154.127 147.853 153.678 146.856 153.39 145.811C152.843 143.81 152.6 141.741 152.666 139.671C152.698 138.647 152.791 137.626 152.947 136.612C153.114 135.598 153.359 134.596 153.678 133.617C153.994 132.617 154.458 131.666 155.054 130.794C155.209 130.57 155.383 130.359 155.573 130.162C155.763 129.954 155.974 129.766 156.203 129.599C156.678 129.217 157.277 129.008 157.894 129.009C158.512 129.01 159.11 129.22 159.584 129.603C159.813 129.77 160.023 129.959 160.213 130.166C160.402 130.363 160.576 130.574 160.734 130.796C161.341 131.662 161.813 132.61 162.135 133.61C162.469 134.587 162.72 135.59 162.888 136.607C163.043 137.621 163.137 138.644 163.168 139.669Z" fill="#E5E5E5"/>
<path d="M190.219 151.215C190.219 140.759 194.398 132.282 199.554 132.282C204.71 132.282 208.89 140.759 208.89 151.215" stroke="#E5E5E5" stroke-width="1.977" stroke-miterlimit="10"/>
<path d="M199.813 155.533L189.828 150.025L189.809 150.059V153.911L197.629 158.223C198.096 157.574 198.713 157.041 199.431 156.667L199.867 156.426L200.303 156.667C201.027 157.044 201.649 157.582 202.117 158.238L209.301 154.151V150.134L199.813 155.533Z" fill="#E5E5E5"/>
<path d="M199.866 157.409C200.503 157.733 201.045 158.207 201.442 158.788C201.724 159.197 201.875 159.677 201.875 160.168C201.875 160.659 201.724 161.139 201.442 161.548C201.045 162.129 200.503 162.603 199.866 162.927C199.23 162.603 198.688 162.129 198.291 161.548C198.009 161.139 197.858 160.659 197.858 160.168C197.858 159.677 198.009 159.197 198.291 158.788C198.688 158.208 199.23 157.733 199.866 157.409Z" fill="#E5E5E5"/>
<path d="M278.699 65.3212H276.044C276.945 65.2958 277.82 65.6182 278.477 66.2179C279.134 66.8175 279.518 67.6453 279.546 68.5195V112.071C279.518 112.946 279.134 113.773 278.477 114.373C277.82 114.973 276.945 115.295 276.044 115.27H278.699C281.5 115.27 283.771 113.196 283.771 110.637V69.9534C283.771 67.3948 281.5 65.3212 278.699 65.3212Z" fill="url(#paint16_linear)"/>
<path d="M278.699 122.604H274.474C275.788 122.575 277.06 123.052 278.011 123.932C278.962 124.812 279.514 126.022 279.546 127.296V168.499C279.514 169.773 278.962 170.983 278.011 171.862C277.06 172.742 275.788 173.22 274.474 173.19H278.699C280.013 173.22 281.285 172.742 282.236 171.862C283.187 170.983 283.739 169.773 283.771 168.499V127.295C283.739 126.021 283.187 124.811 282.236 123.932C281.285 123.052 280.013 122.575 278.699 122.604Z" fill="url(#paint17_linear)"/>
<path d="M357.363 65.321H352.564C358.934 65.321 361.745 70.3282 358.841 76.5045L289.701 223.61C286.798 229.787 279.281 234.794 272.912 234.794H279.475C290.044 234.794 293.361 229.787 296.264 223.61L364.884 78.1881C367.785 72.0114 363.733 65.321 357.363 65.321Z" fill="url(#paint18_linear)"/>
<path d="M272.912 234.794H197.455C191.085 234.794 188.275 229.787 191.178 223.61L260.318 76.5045C263.221 70.3282 270.738 65.321 277.107 65.321H352.563C358.933 65.321 361.743 70.3282 358.84 76.5045L289.7 223.61C286.799 229.787 279.282 234.794 272.912 234.794Z" fill="url(#paint19_linear)"/>
<path d="M291.582 219.604H193.062L258.436 80.511H356.96L291.582 219.604Z" fill="white"/>
<path d="M291.585 219.603H292.54C293.134 219.556 293.704 219.359 294.195 219.032C294.686 218.705 295.08 218.259 295.339 217.739L358.96 82.3733C359.445 81.344 358.976 80.5093 357.914 80.5093H356.958L291.585 219.603Z" fill="#F1F1F1"/>
<path d="M300.805 72.9158H321.728" stroke="#386EAA" stroke-width="4.359" stroke-linecap="round" stroke-linejoin="bevel"/>
<path d="M276.413 74.6675C277.981 73.4541 278.607 71.6858 277.811 70.718C277.014 69.7503 275.097 69.9495 273.529 71.1629C271.961 72.3764 271.335 74.1446 272.131 75.1124C272.928 76.0802 274.845 75.881 276.413 74.6675Z" fill="#386EAA"/>
<path d="M328.533 80.511H328.09C325.934 82.5435 323.895 84.69 321.984 86.9409C316.165 93.8198 315.924 96.6541 316.298 97.7318C317.143 100.163 321.138 99.7177 325.764 99.2024C330.125 98.7166 335.07 98.1662 338.975 99.6651C341.777 100.741 343.794 102.83 345.026 105.9L345.296 105.324C344.032 102.38 342.021 100.376 339.263 99.3123C335.286 97.786 330.296 98.342 325.892 98.8325C321.202 99.3551 317.496 99.7682 316.708 97.5004C316.356 96.4839 316.61 93.777 322.285 87.0662C324.238 84.768 326.324 82.5794 328.533 80.511Z" fill="#F1F1F1"/>
<path d="M245.156 108.763C250.07 104.692 254.826 100.487 259.425 96.1481C264.753 91.1148 269.885 85.8699 274.741 80.5112H274.324C269.517 85.8058 264.446 90.9883 259.178 95.9629C254.763 100.134 250.189 104.188 245.455 108.126L245.156 108.763Z" fill="#F1F1F1"/>
<path d="M235.145 207.381C234.655 204.141 223.567 204.584 213.573 208.244C210.235 209.48 207.033 211.037 204.014 212.891L203.91 212.954C200.999 214.72 197.083 217.566 193.259 219.183L193.061 219.604C197.012 217.945 201.036 215.052 204.031 213.235L204.136 213.171C207.116 211.34 210.278 209.803 213.573 208.583C223.195 205.059 234.265 204.531 234.725 207.573C235.023 209.547 230.918 213.575 222.496 219.604H223.019C231.458 213.523 235.461 209.476 235.145 207.381Z" fill="#F1F1F1"/>
<path d="M242.738 139.835C243.091 145.754 239.539 152.016 237.831 155.026C234.64 160.65 231.372 163.82 228.488 166.617C225.605 169.414 223.115 171.828 221.233 175.956C218.8 181.297 219.533 184.937 220.123 187.864C220.656 190.504 221.076 192.59 219.087 194.928C216.389 198.103 210.632 200.042 201.924 200.746L201.748 201.124C210.651 200.403 216.571 198.372 219.388 195.057C221.525 192.543 221.091 190.389 220.541 187.659C219.959 184.773 219.236 181.182 221.62 175.95C223.457 171.919 225.906 169.544 228.742 166.793C231.658 163.965 234.963 160.759 238.197 155.059C239.925 152.014 243.519 145.679 243.16 139.664C242.838 134.283 239.436 131.029 235.614 129.065L235.417 129.484C240.005 131.876 242.47 135.351 242.738 139.835Z" fill="#F1F1F1"/>
<path d="M302.857 195.618L303.034 195.242C292.137 194.586 285.697 195.619 283.453 198.364C282.196 199.902 282.757 201.311 283.467 203.094C284.313 205.217 285.364 207.859 283.859 211.861C282.662 215.043 280.519 217.366 278.1 219.601H278.541C280.885 217.411 283.06 215.006 284.256 211.827C285.805 207.708 284.734 205.016 283.873 202.854C283.198 201.159 282.665 199.821 283.759 198.483C285.841 195.94 292.254 194.982 302.857 195.618Z" fill="#F1F1F1"/>
<path d="M250.802 219.603H251.348C258.801 214.615 264.038 209.417 266.989 204.058C271.095 196.6 269.295 191.43 267.39 185.956C265.526 180.6 263.413 174.529 266.527 165.319C271.062 151.907 284.402 137.881 294.878 130.524C301.108 126.15 306.548 123.845 310.2 124.018C315.749 124.291 320.078 131.572 317.675 141.977C316.363 147.659 313.163 152.08 310.339 155.98C307.629 159.726 305.287 162.961 305.733 166.062C306.151 168.975 308.966 170.839 314.124 171.648L314.301 171.277C309.291 170.484 306.558 168.68 306.155 165.871C305.728 162.902 307.91 159.887 310.673 156.07C313.525 152.129 316.759 147.661 318.09 141.892C320.061 133.36 317.439 123.992 310.395 123.646C306.632 123.451 301.063 125.814 294.717 130.271C284.153 137.69 270.699 151.836 266.125 165.366C262.977 174.679 265.104 180.793 266.982 186.187C268.948 191.838 270.647 196.717 266.621 204.029C263.667 209.392 258.368 214.601 250.802 219.603Z" fill="#F1F1F1"/>
<path d="M303.238 81.5256C303.627 84.9945 302.298 88.8847 299.682 91.9325C297.723 94.2156 293.919 94.541 289.892 94.8896C285.332 95.2817 280.164 95.726 276.387 99.0765C272.37 102.639 270.923 108.48 272.086 116.438L272.506 116.247C271.362 108.421 272.745 102.711 276.616 99.2771C280.22 96.0809 285.285 95.6451 289.753 95.2607C293.908 94.9032 297.832 94.5658 299.98 92.0642C302.683 88.9142 304.059 84.9064 303.658 81.343C303.627 81.0603 303.584 80.7832 303.532 80.5112H303.066C303.136 80.8418 303.199 81.1762 303.238 81.5256Z" fill="#F1F1F1"/>
<path d="M301.366 169.473H230.403C228.28 169.473 227.343 167.805 228.31 165.745L260.652 96.9339C261.62 94.8748 264.126 93.2058 266.249 93.2058H337.211C339.335 93.2058 340.271 94.8735 339.304 96.9339L306.962 165.745C305.994 167.804 303.49 169.473 301.366 169.473Z" fill="#F1F1F1"/>
<path d="M285.938 202.301H214.974C212.85 202.301 211.914 200.634 212.881 198.573L222.552 177.997C223.522 175.938 226.026 174.269 228.149 174.269H299.111C301.235 174.269 302.172 175.937 301.204 177.997L291.533 198.573C290.565 200.632 288.06 202.301 285.938 202.301Z" fill="#F1F1F1"/>
<path d="M297.765 148.272C312.925 136.542 318.973 119.449 311.274 110.093C303.576 100.737 285.045 102.662 269.885 114.392C254.725 126.123 248.677 143.216 256.376 152.572C264.074 161.927 282.605 160.002 297.765 148.272Z" fill="white"/>
<path d="M271.536 188.285H200.574C198.451 188.285 197.514 186.617 198.482 184.557L208.152 163.981C209.12 161.922 211.626 160.253 213.749 160.253H284.712C286.835 160.253 287.772 161.921 286.804 163.981L277.133 184.557C276.166 186.616 273.66 188.285 271.536 188.285Z" fill="url(#paint20_linear)"/>
<path d="M225.7 171.483L229.606 172.069C230.127 172.147 230.038 172.81 229.456 173.191L225.088 176.054C224.868 176.191 224.703 176.396 224.619 176.636L223.44 180.674C223.283 181.211 222.508 181.622 222.13 181.368L219.282 179.465C219.185 179.415 219.077 179.389 218.966 179.389C218.856 179.389 218.748 179.415 218.65 179.465L214.015 181.375C213.398 181.632 213.008 181.22 213.354 180.682L215.962 176.644C216.027 176.562 216.069 176.465 216.083 176.363C216.097 176.26 216.082 176.156 216.04 176.061L214.355 173.204C214.13 172.824 214.663 172.16 215.257 172.081L219.717 171.489C219.978 171.444 220.217 171.317 220.397 171.128L223.991 167.45C224.469 166.961 225.189 166.96 225.209 167.45L225.356 171.123C225.356 171.214 225.392 171.301 225.455 171.368C225.519 171.435 225.606 171.476 225.7 171.483Z" fill="white"/>
<path d="M246.94 171.483L250.847 172.069C251.367 172.147 251.278 172.81 250.697 173.191L246.328 176.054C246.109 176.191 245.944 176.396 245.86 176.636L244.68 180.674C244.523 181.211 243.749 181.622 243.37 181.368L240.523 179.465C240.426 179.415 240.317 179.389 240.207 179.389C240.097 179.389 239.988 179.415 239.891 179.465L235.256 181.375C234.638 181.632 234.248 181.22 234.594 180.682L237.203 176.644C237.268 176.562 237.31 176.465 237.323 176.363C237.337 176.26 237.322 176.156 237.281 176.061L235.595 173.204C235.371 172.824 235.904 172.16 236.498 172.081L240.957 171.489C241.219 171.444 241.457 171.317 241.637 171.128L245.231 167.45C245.71 166.961 246.429 166.96 246.449 167.45L246.596 171.123C246.597 171.214 246.632 171.301 246.696 171.368C246.76 171.435 246.847 171.476 246.94 171.483Z" fill="white"/>
<path d="M268.181 171.483L272.087 172.069C272.607 172.147 272.518 172.81 271.937 173.191L267.571 176.054C267.351 176.191 267.186 176.396 267.102 176.636L265.923 180.674C265.766 181.211 264.991 181.622 264.613 181.368L261.765 179.465C261.668 179.415 261.56 179.389 261.449 179.389C261.339 179.389 261.231 179.415 261.133 179.465L256.498 181.375C255.881 181.632 255.491 181.22 255.837 180.682L258.445 176.644C258.51 176.562 258.552 176.465 258.566 176.363C258.579 176.26 258.565 176.156 258.523 176.061L256.838 173.204C256.613 172.824 257.146 172.16 257.74 172.081L262.2 171.489C262.461 171.444 262.7 171.317 262.88 171.128L266.474 167.45C266.952 166.961 267.672 166.96 267.691 167.45L267.838 171.123C267.839 171.214 267.874 171.301 267.938 171.367C268.001 171.434 268.088 171.476 268.181 171.483Z" fill="white"/>
<path d="M300.783 115.096H282.645L266.005 147.583H273.057L287.342 124.167L279.164 147.583H286.344L300.783 115.096Z" fill="url(#paint21_radial)"/>
<path d="M299.328 118.368H296.197L293.978 123.091L296.616 124.467L299.328 118.368Z" fill="url(#paint22_linear)"/>
<path d="M298.555 120.108H295.38L296.197 118.368H299.328" stroke="#BF6A0E" stroke-width="0.5" stroke-miterlimit="10"/>
<path d="M280.968 118.368H283.959L281.739 123.091L277.829 124.467L280.968 118.368Z" fill="url(#paint23_linear)"/>
<path d="M280.077 120.108H283.141L283.958 118.368H280.967" stroke="#BF6A0E" stroke-width="0.5" stroke-miterlimit="10"/>
<path d="M287.339 124.167L290.752 116.906H289.317L286.377 121.182L285.735 124.168H287.339L285.105 130.567" stroke="#BF6A0E" stroke-width="0.5" stroke-miterlimit="10"/>
<path d="M280.861 120.108L266.964 147.583" stroke="#BF6A0E" stroke-width="0.5" stroke-miterlimit="10"/>
<path d="M297.661 120.108L285.387 147.583" stroke="#BF6A0E" stroke-width="0.5" stroke-miterlimit="10"/>
<path d="M299.979 116.906L300.783 115.096H282.645L281.718 116.906H299.979Z" fill="url(#paint24_linear)"/>
<path d="M290.439 117.571L291.603 115.096" stroke="#BF6A0E" stroke-width="0.5" stroke-miterlimit="10"/>
<path d="M190.139 229.502C190.681 232.678 193.315 234.794 197.455 234.794H272.91C277.05 234.794 281.672 232.678 285.2 229.502H190.139Z" fill="url(#paint25_linear)"/>
<path d="M365.839 234.793H182.92" stroke="#213E58" stroke-width="2" stroke-miterlimit="10"/>
<path d="M167.896 234.793H135.954" stroke="#213E58" stroke-width="2" stroke-miterlimit="10"/>
<defs>
<linearGradient id="paint0_linear" x1="80.483" y1="29.079" x2="89.9646" y2="29.079" gradientUnits="userSpaceOnUse">
<stop offset="0.391" stop-color="#F1F1F1"/>
<stop offset="0.587" stop-color="#E1E1E1"/>
<stop offset="0.968" stop-color="#B8B8B8"/>
<stop offset="1" stop-color="#B5B5B5"/>
</linearGradient>
<linearGradient id="paint1_linear" x1="177.704" y1="29.079" x2="187.186" y2="29.079" gradientUnits="userSpaceOnUse">
<stop offset="0.391" stop-color="#F1F1F1"/>
<stop offset="0.587" stop-color="#E1E1E1"/>
<stop offset="0.968" stop-color="#B8B8B8"/>
<stop offset="1" stop-color="#B5B5B5"/>
</linearGradient>
<radialGradient id="paint2_radial" cx="0" cy="0" r="1" gradientUnits="userSpaceOnUse" gradientTransform="translate(628.697 870.957) scale(52.2451 50.6612)">
<stop stop-color="#C1D0D9"/>
<stop offset="0.609" stop-color="#BFCED7"/>
<stop offset="0.841" stop-color="#B8C8D1"/>
<stop offset="1" stop-color="#ADBEC7"/>
</radialGradient>
<linearGradient id="paint3_linear" x1="111.84" y1="48.622" x2="134.642" y2="48.622" gradientUnits="userSpaceOnUse">
<stop stop-color="#22E5A8"/>
<stop offset="0.129" stop-color="#2DE6AC"/>
<stop offset="0.398" stop-color="#3FE8B3"/>
<stop offset="0.681" stop-color="#4AE9B7"/>
<stop offset="1" stop-color="#4EEAB9"/>
</linearGradient>
<linearGradient id="paint4_linear" x1="274.474" y1="29.079" x2="283.955" y2="29.079" gradientUnits="userSpaceOnUse">
<stop offset="0.391" stop-color="#F1F1F1"/>
<stop offset="0.587" stop-color="#E1E1E1"/>
<stop offset="0.968" stop-color="#B8B8B8"/>
<stop offset="1" stop-color="#B5B5B5"/>
</linearGradient>
<linearGradient id="paint5_linear" x1="274.137" y1="29.079" x2="283.619" y2="29.079" gradientUnits="userSpaceOnUse">
<stop offset="0.391" stop-color="#F1F1F1"/>
<stop offset="0.587" stop-color="#E1E1E1"/>
<stop offset="0.968" stop-color="#B8B8B8"/>
<stop offset="1" stop-color="#B5B5B5"/>
</linearGradient>
<linearGradient id="paint6_linear" x1="217.691" y1="17.3517" x2="223.154" y2="38.8551" gradientUnits="userSpaceOnUse">
<stop stop-color="#8DB4E9"/>
<stop offset="1" stop-color="#71A1E4"/>
</linearGradient>
<linearGradient id="paint7_linear" x1="239.191" y1="11.2684" x2="234.433" y2="41.5944" gradientUnits="userSpaceOnUse">
<stop offset="0.391" stop-color="#71A1E4"/>
<stop offset="0.594" stop-color="#588BCB"/>
<stop offset="0.846" stop-color="#4075B3"/>
<stop offset="1" stop-color="#386EAA"/>
</linearGradient>
<linearGradient id="paint8_linear" x1="229.376" y1="10.4475" x2="228.27" y2="42.505" gradientUnits="userSpaceOnUse">
<stop offset="0.391" stop-color="#71A1E4"/>
<stop offset="0.594" stop-color="#588BCB"/>
<stop offset="0.846" stop-color="#4075B3"/>
<stop offset="1" stop-color="#386EAA"/>
</linearGradient>
<linearGradient id="paint9_linear" x1="210.927" y1="32.9465" x2="233.729" y2="32.9465" gradientUnits="userSpaceOnUse">
<stop stop-color="#22E5A8"/>
<stop offset="0.129" stop-color="#2DE6AC"/>
<stop offset="0.398" stop-color="#3FE8B3"/>
<stop offset="0.681" stop-color="#4AE9B7"/>
<stop offset="1" stop-color="#4EEAB9"/>
</linearGradient>
<linearGradient id="paint10_linear" x1="111.43" y1="119.256" x2="120.911" y2="119.256" gradientUnits="userSpaceOnUse">
<stop offset="0.391" stop-color="#F1F1F1"/>
<stop offset="0.587" stop-color="#E1E1E1"/>
<stop offset="0.968" stop-color="#B8B8B8"/>
<stop offset="1" stop-color="#B5B5B5"/>
</linearGradient>
<radialGradient id="paint11_radial" cx="0" cy="0" r="1" gradientUnits="userSpaceOnUse" gradientTransform="translate(437.813 1577.59) scale(75.2588 72.9772)">
<stop stop-color="#FF9D34"/>
<stop offset="0.305" stop-color="#FF931F"/>
<stop offset="0.73" stop-color="#FF8809"/>
<stop offset="1" stop-color="#FF8501"/>
</radialGradient>
<linearGradient id="paint12_linear" x1="38.7825" y1="77.2879" x2="48.1076" y2="81.5326" gradientUnits="userSpaceOnUse">
<stop stop-color="#FF9D34"/>
<stop offset="0.198" stop-color="#FF931E"/>
<stop offset="0.429" stop-color="#FF8B0E"/>
<stop offset="0.682" stop-color="#FF8604"/>
<stop offset="1" stop-color="#FF8501"/>
</linearGradient>
<linearGradient id="paint13_linear" x1="23.855" y1="69.8839" x2="12.1246" y2="82.596" gradientUnits="userSpaceOnUse">
<stop stop-color="#FF9D34"/>
<stop offset="0.305" stop-color="#FF931F"/>
<stop offset="0.73" stop-color="#FF8809"/>
<stop offset="1" stop-color="#FF8501"/>
</linearGradient>
<radialGradient id="paint14_radial" cx="0" cy="0" r="1" gradientUnits="userSpaceOnUse" gradientTransform="translate(-2731.69 -2739.65) scale(2003.18 198.544)">
<stop stop-color="#FF9D34"/>
<stop offset="0.305" stop-color="#FF931F"/>
<stop offset="0.73" stop-color="#FF8809"/>
<stop offset="1" stop-color="#FF8501"/>
</radialGradient>
<linearGradient id="paint15_linear" x1="9.15564" y1="65.2609" x2="54.7597" y2="65.2609" gradientUnits="userSpaceOnUse">
<stop stop-color="#22E5A8"/>
<stop offset="0.129" stop-color="#2DE6AC"/>
<stop offset="0.398" stop-color="#3FE8B3"/>
<stop offset="0.681" stop-color="#4AE9B7"/>
<stop offset="1" stop-color="#4EEAB9"/>
</linearGradient>
<linearGradient id="paint16_linear" x1="276.044" y1="90.2956" x2="283.771" y2="90.2956" gradientUnits="userSpaceOnUse">
<stop offset="0.391" stop-color="#F1F1F1"/>
<stop offset="0.587" stop-color="#E1E1E1"/>
<stop offset="0.968" stop-color="#B8B8B8"/>
<stop offset="1" stop-color="#B5B5B5"/>
</linearGradient>
<linearGradient id="paint17_linear" x1="274.474" y1="147.897" x2="283.771" y2="147.897" gradientUnits="userSpaceOnUse">
<stop offset="0.391" stop-color="#F1F1F1"/>
<stop offset="0.587" stop-color="#E1E1E1"/>
<stop offset="0.968" stop-color="#B8B8B8"/>
<stop offset="1" stop-color="#B5B5B5"/>
</linearGradient>
<linearGradient id="paint18_linear" x1="307.945" y1="150.057" x2="326.345" y2="150.057" gradientUnits="userSpaceOnUse">
<stop offset="0.391" stop-color="#71A1E4"/>
<stop offset="0.594" stop-color="#588BCB"/>
<stop offset="0.846" stop-color="#4075B3"/>
<stop offset="1" stop-color="#386EAA"/>
</linearGradient>
<linearGradient id="paint19_linear" x1="180.516" y1="150.057" x2="350.467" y2="150.057" gradientUnits="userSpaceOnUse">
<stop stop-color="#8DB4E9"/>
<stop offset="1" stop-color="#71A1E4"/>
</linearGradient>
<linearGradient id="paint20_linear" x1="211.285" y1="174.269" x2="300.37" y2="174.269" gradientUnits="userSpaceOnUse">
<stop stop-color="#22E5A8"/>
<stop offset="0.129" stop-color="#2DE6AC"/>
<stop offset="0.398" stop-color="#3FE8B3"/>
<stop offset="0.681" stop-color="#4AE9B7"/>
<stop offset="1" stop-color="#4EEAB9"/>
</linearGradient>
<radialGradient id="paint21_radial" cx="0" cy="0" r="1" gradientUnits="userSpaceOnUse" gradientTransform="translate(-74886.5 57901) rotate(21.902) scale(3417.92 3540.07)">
<stop stop-color="#FF9D34"/>
<stop offset="0.305" stop-color="#FF931F"/>
<stop offset="0.73" stop-color="#FF8809"/>
<stop offset="1" stop-color="#FF8501"/>
</radialGradient>
<linearGradient id="paint22_linear" x1="275.657" y1="116.051" x2="276.987" y2="118.039" gradientUnits="userSpaceOnUse">
<stop stop-color="#FF9D34"/>
<stop offset="0.305" stop-color="#FF931F"/>
<stop offset="0.73" stop-color="#FF8809"/>
<stop offset="1" stop-color="#FF8501"/>
</linearGradient>
<linearGradient id="paint23_linear" x1="265.533" y1="110.306" x2="262.668" y2="121.254" gradientUnits="userSpaceOnUse">
<stop stop-color="#FF9D34"/>
<stop offset="0.305" stop-color="#FF931F"/>
<stop offset="0.73" stop-color="#FF8809"/>
<stop offset="1" stop-color="#FF8501"/>
</linearGradient>
<linearGradient id="paint24_linear" x1="261.472" y1="110.621" x2="261.59" y2="118.463" gradientUnits="userSpaceOnUse">
<stop stop-color="#FF9D34"/>
<stop offset="0.305" stop-color="#FF931F"/>
<stop offset="0.73" stop-color="#FF8809"/>
<stop offset="1" stop-color="#FF8501"/>
</linearGradient>
<linearGradient id="paint25_linear" x1="291.949" y1="190.336" x2="291.517" y2="291.217" gradientUnits="userSpaceOnUse">
<stop offset="0.391" stop-color="#71A1E4"/>
<stop offset="0.594" stop-color="#588BCB"/>
<stop offset="0.846" stop-color="#4075B3"/>
<stop offset="1" stop-color="#386EAA"/>
</linearGradient>
</defs>
</svg>
