<svg width="30" height="30" viewBox="0 0 30 30" fill="none" xmlns="http://www.w3.org/2000/svg">
<rect width="30" height="30" rx="5" fill="#1DA1F2"/>
<path d="M23.9801 9.66757C23.9558 9.63853 23.9156 9.62867 23.8813 9.64451C23.373 9.87248 22.8383 10.0364 22.2876 10.1332C22.8723 9.68852 23.3079 9.07275 23.5313 8.36668C23.5421 8.33288 23.5309 8.29591 23.5036 8.27391C23.4761 8.2519 23.438 8.24909 23.4078 8.26722C22.7493 8.66206 22.0362 8.94037 21.2871 9.09476C20.6234 8.39837 19.6966 8 18.7374 8C16.7866 8 15.1998 9.60438 15.1998 11.5765C15.1998 11.815 15.2226 12.0513 15.2678 12.2806C12.5659 12.112 10.0396 10.8005 8.32175 8.67034C8.30417 8.64851 8.27753 8.63636 8.24967 8.63918C8.22198 8.64129 8.19726 8.65714 8.18333 8.68125C7.86993 9.22485 7.70434 9.84677 7.70434 10.4794C7.70434 11.576 8.19709 12.6012 9.03614 13.2777C8.60416 13.2252 8.18229 13.0877 7.80185 12.8742C7.77625 12.8596 7.74439 12.8598 7.7188 12.8747C7.6932 12.8895 7.67701 12.917 7.67631 12.9469L7.67596 12.9927C7.67596 14.5675 8.70236 15.9502 10.1627 16.4093C9.77804 16.472 9.37897 16.4678 8.98669 16.3921C8.95779 16.3866 8.92749 16.3967 8.90764 16.4192C8.88797 16.4417 8.88135 16.4732 8.89041 16.5017C9.3283 17.8836 10.545 18.8527 11.9613 18.9734C10.7799 19.8485 9.3835 20.3095 7.90806 20.3095C7.63627 20.3095 7.36256 20.2932 7.09442 20.2613C7.05612 20.2569 7.01816 20.28 7.00493 20.3171C6.9917 20.3546 7.0058 20.3965 7.03888 20.4178C8.6355 21.4531 10.4816 22 12.3779 22C18.5807 22 22.2872 16.9059 22.2872 11.9812C22.2872 11.8441 22.2846 11.7076 22.2792 11.5716C22.9483 11.0767 23.5228 10.471 23.9859 9.76985C24.0066 9.73851 24.0044 9.69679 23.9801 9.66757Z" fill="white"/>
</svg>
