<svg width="16" height="30" viewBox="0 0 16 30" fill="none" xmlns="http://www.w3.org/2000/svg">
<path fill-rule="evenodd" clip-rule="evenodd" d="M10 14V8L3 18H6V24L13 14H10ZM6 16.5L8.5 13V15.5H10L7.5 19.5V16.5H6Z" fill="#282F36"/>
<path fill-rule="evenodd" clip-rule="evenodd" d="M5 0H11V2H14C15.1046 2 16 2.89543 16 4V28C16 29.1046 15.1046 30 14 30H2C0.895431 30 0 29.1046 0 28V4C0 2.89543 0.895431 2 2 2H5V0ZM2 3.5C1.72386 3.5 1.5 3.72386 1.5 4V28C1.5 28.2761 1.72386 28.5 2 28.5H14C14.2761 28.5 14.5 28.2761 14.5 28V4C14.5 3.72386 14.2761 3.5 14 3.5H2ZM9.5 2H6.5V1.5H9.5V2Z" fill="#282F36"/>
</svg>
