<svg width="22" height="22" viewBox="0 0 22 22" fill="none" xmlns="http://www.w3.org/2000/svg">
<path d="M15.1177 2.76132C14.9466 2.97803 14.9835 3.29245 15.2003 3.46359C15.417 3.63474 15.7314 3.59779 15.9025 3.38108L15.1177 2.76132ZM15.9264 2.60545L15.5739 2.2508L15.5737 2.25101L15.9264 2.60545ZM20.3881 1.8352L20.0334 2.18757L20.0335 2.1877L20.3881 1.8352ZM19.5879 6.29095L19.2355 5.93621L19.2353 5.93641L19.5879 6.29095ZM18.0535 6.79086C17.8061 6.91338 17.7048 7.21332 17.8273 7.46079C17.9498 7.70826 18.2497 7.80956 18.4972 7.68704L18.0535 6.79086ZM5.93323 2.9601C6.1291 3.15475 6.44568 3.15377 6.64033 2.9579C6.83499 2.76203 6.834 2.44545 6.63813 2.2508L5.93323 2.9601ZM1.82468 1.8352L2.17928 2.1877L2.17954 2.18744L1.82468 1.8352ZM2.62418 6.29095L2.97684 5.93651L2.97663 5.9363L2.62418 6.29095ZM3.87605 7.76307C4.12782 7.8765 4.42388 7.76435 4.5373 7.51258C4.65073 7.2608 4.53858 6.96475 4.28681 6.85133L3.87605 7.76307ZM10.1294 13.8972L10.4832 13.5439L10.483 13.5437L10.1294 13.8972ZM10.6994 14.468L10.3457 14.8213L10.3466 14.8222L10.6994 14.468ZM11.4157 14.468L11.0621 14.1144L11.0621 14.1144L11.4157 14.468ZM11.9864 13.8972L12.34 14.2508L12.3404 14.2503L11.9864 13.8972ZM15.5399 15.4838L16.026 15.3667L16.026 15.3667L15.5399 15.4838ZM6.51586 15.4838L6.02976 15.3667L6.0297 15.367L6.51586 15.4838ZM6.93361 13.749L7.41972 13.8661L7.41972 13.8661L6.93361 13.749ZM15.1221 13.749L14.636 13.8661L14.636 13.8661L15.1221 13.749ZM15.9025 3.38108C16.0165 3.23681 16.1419 3.09639 16.2791 2.95988L15.5737 2.25101C15.4094 2.4145 15.2573 2.58458 15.1177 2.76132L15.9025 3.38108ZM16.2788 2.9601C16.9413 2.30173 17.7133 1.9096 18.4077 1.78969C19.104 1.66947 19.6739 1.82565 20.0334 2.18757L20.7429 1.48282C20.0906 0.826249 19.1561 0.645677 18.2376 0.80427C17.3173 0.963175 16.3642 1.46542 15.5739 2.2508L16.2788 2.9601ZM20.0335 2.1877C20.3925 2.54878 20.5449 3.11922 20.4201 3.8147C20.2956 4.50829 19.8984 5.27781 19.2355 5.93621L19.9402 6.64569C20.7309 5.86033 21.2393 4.91048 21.4043 3.99139C21.569 3.07417 21.3948 2.13861 20.7427 1.48269L20.0335 2.1877ZM19.2353 5.93641C18.8669 6.30281 18.4615 6.58887 18.0535 6.79086L18.4972 7.68704C19.0042 7.43603 19.4974 7.08609 19.9405 6.64548L19.2353 5.93641ZM6.63813 2.2508C5.84786 1.46542 4.89482 0.963179 3.97461 0.804272C3.05623 0.64568 2.12172 0.826224 1.46982 1.48295L2.17954 2.18744C2.53865 1.82567 3.10826 1.66947 3.80444 1.78969C4.4988 1.90959 5.27075 2.30173 5.93323 2.9601L6.63813 2.2508ZM1.47008 1.48269C0.818037 2.13861 0.643842 3.07415 0.808382 3.99133C0.97326 4.9104 1.48147 5.86024 2.27173 6.6456L2.97663 5.9363C2.31414 5.27791 1.9171 4.50838 1.79267 3.81475C1.6679 3.11924 1.82033 2.54879 2.17928 2.1877L1.47008 1.48269ZM2.27152 6.64539C2.76113 7.13254 3.31163 7.50879 3.87605 7.76307L4.28681 6.85133C3.83574 6.64811 3.38424 6.34185 2.97684 5.93651L2.27152 6.64539ZM19.0422 15.2178C19.0422 16.903 18.1129 18.1881 16.6252 19.0759C15.1255 19.971 13.0917 20.4345 11.0278 20.4345C8.96393 20.4345 6.93008 19.971 5.43041 19.0759C3.94275 18.1881 3.01343 16.903 3.01343 15.2178H2.01343C2.01343 17.3437 3.2127 18.9169 4.91793 19.9346C6.61115 20.9452 8.83448 21.4345 11.0278 21.4345C13.2211 21.4345 15.4445 20.9452 17.1377 19.9346C18.8429 18.9169 20.0422 17.3437 20.0422 15.2178H19.0422ZM3.01343 15.2178C3.01343 11.4838 3.94811 8.12732 5.43282 5.72054C6.92241 3.30583 8.91436 1.91553 11.0274 1.91553V0.915527C8.43875 0.915527 6.1737 2.61485 4.58173 5.19552C2.98487 7.78411 2.01343 11.3288 2.01343 15.2178H3.01343ZM11.0274 1.91553C13.1409 1.91553 15.133 3.30586 16.6227 5.72055C18.1075 8.12732 19.0422 11.4838 19.0422 15.2178H20.0422C20.0422 11.3288 19.0707 7.78411 17.4738 5.1955C15.8817 2.61482 13.6165 0.915527 11.0274 0.915527V1.91553ZM7.92579 8.55262C7.92579 8.69904 7.80658 8.81837 7.66004 8.81837V9.81837C8.3595 9.81837 8.92579 9.25069 8.92579 8.55262H7.92579ZM7.66004 8.81837C7.5135 8.81837 7.39429 8.69904 7.39429 8.55262H6.39429C6.39429 9.25069 6.96058 9.81837 7.66004 9.81837V8.81837ZM7.39429 8.55262C7.39429 8.40576 7.51318 8.28687 7.66004 8.28687V7.28687C6.96089 7.28687 6.39429 7.85347 6.39429 8.55262H7.39429ZM7.66004 8.28687C7.80689 8.28687 7.92579 8.40576 7.92579 8.55262H8.92579C8.92579 7.85347 8.35918 7.28687 7.66004 7.28687V8.28687ZM14.6615 8.55262C14.6615 8.69904 14.5423 8.81837 14.3958 8.81837V9.81837C15.0952 9.81837 15.6615 9.25069 15.6615 8.55262H14.6615ZM14.3958 8.81837C14.2492 8.81837 14.13 8.69904 14.13 8.55262H13.13C13.13 9.25069 13.6963 9.81837 14.3958 9.81837V8.81837ZM14.13 8.55262C14.13 8.40576 14.2489 8.28687 14.3958 8.28687V7.28687C13.6966 7.28687 13.13 7.85347 13.13 8.55262H14.13ZM14.3958 8.28687C14.5426 8.28687 14.6615 8.40576 14.6615 8.55262H15.6615C15.6615 7.85347 15.0949 7.28687 14.3958 7.28687V8.28687ZM9.77566 14.2505L10.3457 14.8213L11.0532 14.1146L10.4832 13.5439L9.77566 14.2505ZM10.3466 14.8222C10.7393 15.2134 11.3764 15.2144 11.7692 14.8215L11.0621 14.1144C11.0612 14.1154 11.0609 14.1154 11.0608 14.1154C11.0605 14.1156 11.0594 14.1159 11.0578 14.1159C11.0563 14.1159 11.0551 14.1156 11.0545 14.1153C11.0542 14.1152 11.0536 14.115 11.0523 14.1137L10.3466 14.8222ZM11.7692 14.8215L12.34 14.2508L11.6329 13.5436L11.0621 14.1144L11.7692 14.8215ZM12.3404 14.2503C12.9729 13.6164 12.5255 12.5332 11.6287 12.5332V13.5332C11.6342 13.5332 11.6358 13.534 11.6348 13.5336C11.6338 13.5333 11.6326 13.5327 11.6317 13.5321C11.6302 13.531 11.6322 13.532 11.6342 13.5368C11.6362 13.5415 11.6355 13.5437 11.6357 13.5421C11.6359 13.541 11.6363 13.5399 11.6367 13.5391C11.6372 13.5383 11.6365 13.54 11.6325 13.5441L12.3404 14.2503ZM11.6287 12.5332H10.4872V13.5332H11.6287V12.5332ZM10.4872 12.5332C9.59032 12.5332 9.14135 13.6162 9.77589 14.2508L10.483 13.5437C10.4789 13.5396 10.4782 13.5377 10.4787 13.5386C10.479 13.5393 10.4795 13.5405 10.4796 13.5416C10.48 13.5434 10.4792 13.5413 10.4811 13.5368C10.483 13.5322 10.485 13.5312 10.4836 13.5322C10.4826 13.5329 10.4815 13.5334 10.4807 13.5337C10.4797 13.534 10.4815 13.5332 10.4872 13.5332V12.5332ZM15.0538 15.6008C15.2149 16.27 15.0737 16.8384 14.7617 17.2343C14.4497 17.6303 13.9301 17.9005 13.2419 17.9005V18.9005C14.2036 18.9005 15.0261 18.5145 15.5472 17.8532C16.0683 17.1918 16.2511 16.3018 16.026 15.3667L15.0538 15.6008ZM13.2419 17.9005H8.81386V18.9005H13.2419V17.9005ZM8.81386 17.9005C8.12562 17.9005 7.60622 17.6303 7.29433 17.2343C6.98241 16.8384 6.84119 16.2699 7.00202 15.6006L6.0297 15.367C5.80504 16.3019 5.98782 17.1918 6.50878 17.8531C7.02976 18.5145 7.85211 18.9005 8.81386 18.9005V17.9005ZM7.00197 15.6008L7.41972 13.8661L6.44751 13.632L6.02976 15.3667L7.00197 15.6008ZM7.41972 13.8661C7.75189 12.4865 9.21741 11.3323 10.6356 11.3323V10.3323C8.75532 10.3323 6.88784 11.8031 6.44751 13.632L7.41972 13.8661ZM10.6356 11.3323H11.4201V10.3323H10.6356V11.3323ZM11.4201 11.3323C12.839 11.3323 14.3038 12.4864 14.636 13.8661L15.6082 13.632C15.1679 11.8031 13.3012 10.3323 11.4201 10.3323V11.3323ZM14.636 13.8661L15.0538 15.6008L16.026 15.3667L15.6082 13.632L14.636 13.8661Z" fill="#4F4F4F"/>
</svg>
