<?xml version="1.0" encoding="utf-8"?>
<!-- Generator: Adobe Illustrator 23.0.1, SVG Export Plug-In . SVG Version: 6.00 Build 0)  -->
<svg version="1.1" id="Layer_1" xmlns="http://www.w3.org/2000/svg" xmlns:xlink="http://www.w3.org/1999/xlink" x="0px" y="0px"
	 viewBox="0 0 13 16" style="enable-background:new 0 0 13 16;" xml:space="preserve">
<path d="M6.5,9.7l4.5,2.8V2H2v10.4L6.5,9.7z M0,16V2c0-1.1,0.9-2,2-2h9c1.1,0,2,0.9,2,2v14l-6.5-4L0,16z"/>
</svg>
