<svg width="14" height="14" viewBox="0 0 14 14" fill="none" xmlns="http://www.w3.org/2000/svg">
<path fill-rule="evenodd" clip-rule="evenodd" d="M8.37972 1.49668C9.50679 0.378432 11.2091 0.443952 12.4265 1.65198C12.9897 2.21126 13.3 2.95482 13.3 3.74578C13.3 4.53706 12.9897 5.28062 12.4268 5.83959L9.92306 8.32336C9.14974 9.09117 8.33641 9.47894 7.56639 9.47894C6.93749 9.47894 6.33757 9.22032 5.812 8.69868C5.50598 8.39502 5.50409 7.90063 5.80806 7.59477C6.11204 7.2889 6.60611 7.28701 6.91214 7.59083L6.91217 7.59087C7.14136 7.81832 7.67843 8.35134 8.82324 7.21551L11.327 4.73173C11.5924 4.46823 11.7386 4.11811 11.7386 3.74594C11.7386 3.37392 11.5926 3.0238 11.3267 2.7603C10.8281 2.2656 10.0636 2.02525 9.4797 2.60501L8.68527 3.39345C8.37925 3.69727 7.88501 3.69554 7.58104 3.38952C7.27706 3.08349 7.27895 2.58942 7.58498 2.2856L8.37972 1.49668ZM4.67687 11.3299L5.31443 10.6967C5.62045 10.3929 6.11516 10.3946 6.41866 10.7004C6.72264 11.0064 6.72091 11.5006 6.41504 11.8043L5.77701 12.4376C5.19725 13.0128 4.43605 13.3 3.6747 13.3C2.9135 13.3 2.15262 13.0128 1.57318 12.4379C1.00996 11.8789 0.699997 11.1357 0.699997 10.3444C0.699997 9.55312 1.00996 8.80972 1.57302 8.25075L3.91993 5.92227C5.37901 4.47453 7.05433 4.26663 8.18786 5.3915C8.49388 5.69516 8.49577 6.18955 8.1918 6.49542C7.88798 6.80128 7.39375 6.80333 7.08772 6.49935C6.42087 5.83801 5.50595 6.54818 5.01959 7.03044L2.67284 9.35877C2.40761 9.62226 2.26161 9.97239 2.26161 10.3444C2.26161 10.7164 2.40745 11.0664 2.673 11.3299C3.22535 11.8781 4.1242 11.8777 4.67687 11.3299Z" fill="#828282"/>
</svg>
