<?xml version="1.0" encoding="utf-8"?>
<!-- Generator: Adobe Illustrator 23.0.1, SVG Export Plug-In . SVG Version: 6.00 Build 0)  -->
<svg version="1.1" id="Layer_1" xmlns="http://www.w3.org/2000/svg" xmlns:xlink="http://www.w3.org/1999/xlink" x="0px" y="0px"
	 viewBox="0 0 13 13" xml:space="preserve">
<path d="M11.7,0H1.3C0.6,0,0,0.6,0,1.4v7.4C0,9.6,0.6,10,1.3,10h5.6l3.1,3c0.1,0,0-3,0-3h1.7c0.7,0,1.3-0.4,1.3-1.2V1.4
	C13,0.6,12.4,0,11.7,0z"/>
</svg>
