<?xml version="1.0" encoding="utf-8"?>
<!-- Generator: Adobe Illustrator 22.1.0, SVG Export Plug-In . SVG Version: 6.00 Build 0)  -->
<svg version="1.1" id="Слой_1" xmlns="http://www.w3.org/2000/svg" xmlns:xlink="http://www.w3.org/1999/xlink" x="0px" y="0px"
	 viewBox="0 0 4 20" style="enable-background:new 0 0 4 20;" xml:space="preserve">
<path d="M0,2c0,1.1,0.9,2,2,2c1.1,0,2-0.9,2-2S3.1,0,2,0C0.9,0,0,0.9,0,2z"/>
<path d="M0,10c0,1.1,0.9,2,2,2c1.1,0,2-0.9,2-2c0-1.1-0.9-2-2-2C0.9,8,0,8.9,0,10z"/>
<path d="M0,18c0,1.1,0.9,2,2,2c1.1,0,2-0.9,2-2s-0.9-2-2-2C0.9,16,0,16.9,0,18z"/>
</svg>
