<svg width="70" height="70" viewBox="0 0 70 70" fill="none" xmlns="http://www.w3.org/2000/svg">
<path d="M25 19C24.4477 19 24 18.5523 24 18C24 17.4477 24.4477 17 25 17H45C45.5523 17 46 17.4477 46 18C46 18.5523 45.5523 19 45 19H25Z" fill="#4592FF"/>
<path d="M25 25C24.4477 25 24 24.5523 24 24C24 23.4477 24.4477 23 25 23H45C45.5523 23 46 23.4477 46 24C46 24.5523 45.5523 25 45 25H25Z" fill="#4592FF"/>
<path d="M24 30C24 29.4477 24.4477 29 25 29H45C45.5523 29 46 29.4477 46 30C46 30.5523 45.5523 31 45 31H25C24.4477 31 24 30.5523 24 30Z" fill="#4592FF"/>
<path fill-rule="evenodd" clip-rule="evenodd" d="M17 5C15.3431 5 14 6.34315 14 8V19.7L5.85308 25.4028C5.31842 25.7771 5 26.3887 5 27.0413V63C5 64.1046 5.89543 65 7 65H63C64.1046 65 65 64.1046 65 63V27.0413C65 26.3887 64.6816 25.7771 64.1469 25.4028L56 19.7V8C56 6.34315 54.6569 5 53 5H17ZM54 20.4286L53.8531 20.6385L54 20.7413V33.331L35.6044 47.2863C35.2471 47.5574 34.7529 47.5574 34.3956 47.2863L16 33.331V20.7413L16.1469 20.6385L16 20.4286V8C16 7.44772 16.4477 7 17 7H53C53.5523 7 54 7.44772 54 8V20.4286ZM14 22.1413L7.36876 26.7832L14 31.8138V22.1413ZM7 29.0138V61.9938L28.805 45.5555L14.8909 35L14 34.3242L7 29.0138ZM30.461 46.8118L8.98764 63H61.0124L39.539 46.8118L36.8132 48.8797C35.7412 49.6929 34.2588 49.6929 33.1868 48.8797L30.461 46.8118ZM41.195 45.5555L63 61.9938V29.0138L56 34.3242L55.1091 35L41.195 45.5555ZM62.6312 26.7832L56 31.8138V22.1413L62.6312 26.7832Z" fill="#4592FF"/>
</svg>
