<?xml version="1.0" encoding="utf-8"?>
<!-- Generator: Adobe Illustrator 23.0.1, SVG Export Plug-In . SVG Version: 6.00 Build 0)  -->
<svg version="1.1" id="Layer_1" xmlns="http://www.w3.org/2000/svg" xmlns:xlink="http://www.w3.org/1999/xlink" x="0px" y="0px"
	 viewBox="0 0 10 18" xml:space="preserve">
<path d="M9.6,0L7.2,0C4.5,0,2.8,1.7,2.8,4.4v2H0.4C0.2,6.5,0,6.6,0,6.8v3c0,0.2,0.2,0.4,0.4,0.4h2.4v7.5
	C2.8,17.8,3,18,3.2,18h3.1c0.2,0,0.4-0.2,0.4-0.4v-7.5h2.8c0.2,0,0.4-0.2,0.4-0.4l0-3c0-0.1,0-0.2-0.1-0.3C9.7,6.5,9.6,6.5,9.5,6.5
	H6.7V4.7c0-0.8,0.2-1.3,1.3-1.3l1.6,0c0.2,0,0.4-0.2,0.4-0.4V0.4C10,0.2,9.8,0,9.6,0z"/>
</svg>
