<?xml version="1.0" encoding="utf-8"?>
<!-- Generator: Adobe Illustrator 23.0.1, SVG Export Plug-In . SVG Version: 6.00 Build 0)  -->
<svg version="1.1" id="Layer_1" xmlns="http://www.w3.org/2000/svg" xmlns:xlink="http://www.w3.org/1999/xlink" x="0px" y="0px"
	 viewBox="0 0 19.2 20.6" style="enable-background:new 0 0 19.2 20.6;" xml:space="preserve">
<style type="text/css">
	.st0{fill-rule:evenodd;clip-rule:evenodd;}
</style>
<path class="st0" d="M1.2,8.7c0-0.3,0.2-0.5,0.5-0.5h15.9c0.3,0,0.5,0.2,0.5,0.5v9.9c0,1.1-0.9,2-2,2H3.2c-1.1,0-2-0.9-2-2V8.7z
	 M2.2,9.2v9.4c0,0.6,0.4,1,1,1H16c0.6,0,1-0.4,1-1V9.2H2.2z"/>
<path class="st0" d="M2.2,5.4C1.5,5.4,1,6,1,6.6V8h17.2V6.6c0-0.6-0.5-1.2-1.2-1.2H2.2z M0,6.6c0-1.2,1-2.2,2.2-2.2h14.9
	c1.2,0,2.2,1,2.2,2.2v1.9C19.2,8.7,19,9,18.7,9H0.5C0.2,9,0,8.7,0,8.5V6.6z"/>
<path class="st0" d="M10.9,0.8C12,0,13.5,0.3,14.3,1.4C15,2.5,14.8,4,13.7,4.7c-0.3,0.2-0.8,0.3-1.2,0.4c-0.4,0.1-0.9,0.1-1.4,0.1
	c-0.4,0-0.9,0-1.2,0c-0.2,0-0.3,0-0.4,0c0,0-0.1,0-0.1,0l0,0l0,0l0,0c0,0,0,0,0-0.5C9,4.6,9,4.6,9,4.6l0,0l0,0l0,0c0,0,0-0.1,0-0.1
	c0-0.1,0.1-0.2,0.1-0.3C9.3,3.8,9.4,3.4,9.6,3c0.2-0.4,0.4-0.9,0.6-1.2C10.4,1.4,10.6,1,10.9,0.8z M9.5,4.7L9,4.6C9,4.7,9,4.9,9.1,5
	c0.1,0.1,0.2,0.2,0.4,0.2L9.5,4.7z M10.2,4.2c0.3,0,0.6,0,0.9,0c0.4,0,0.9,0,1.2-0.1C12.7,4.1,13,4,13.1,3.9
	c0.6-0.4,0.8-1.3,0.3-1.9c-0.4-0.6-1.3-0.8-1.9-0.3c-0.1,0.1-0.3,0.3-0.5,0.6c-0.2,0.3-0.4,0.7-0.5,1.1C10.4,3.7,10.3,4,10.2,4.2z"
	/>
<path class="st0" d="M1.2,14.4c0-0.3,0.2-0.5,0.5-0.5h15.9c0.3,0,0.5,0.2,0.5,0.5c0,0.3-0.2,0.5-0.5,0.5H1.7
	C1.4,14.9,1.2,14.6,1.2,14.4z"/>
<path class="st0" d="M5,4C4.1,3,4.2,1.5,5.2,0.6c1-0.9,2.5-0.8,3.4,0.1C8.8,1,9,1.5,9.1,1.9c0.1,0.4,0.2,0.9,0.3,1.3
	C9.5,3.6,9.5,4,9.5,4.3c0,0.2,0,0.3,0,0.4c0,0,0,0.1,0,0.1l0,0l0,0l0,0c0,0,0,0-0.5,0C9,5.4,9,5.4,9,5.4l0,0l0,0l0,0
	c0,0-0.1,0-0.1,0c-0.1,0-0.2,0-0.4-0.1C8.2,5.2,7.8,5.2,7.4,5C7,4.9,6.5,4.8,6.1,4.6C5.7,4.5,5.3,4.3,5,4z M9.1,4.9L9,5.4
	c0.2,0,0.3,0,0.4-0.1C9.5,5.1,9.6,5,9.6,4.8L9.1,4.9z M8.5,4.3c0-0.3-0.1-0.6-0.1-0.9C8.3,2.9,8.2,2.5,8.1,2.2
	C8,1.8,7.9,1.5,7.8,1.4c-0.5-0.6-1.4-0.6-2-0.1c-0.6,0.5-0.6,1.4-0.1,2c0.1,0.1,0.3,0.2,0.7,0.4C6.8,3.9,7.2,4,7.6,4.1
	C8,4.2,8.3,4.2,8.5,4.3z"/>
</svg>
