<?xml version="1.0" encoding="utf-8"?>
<!-- Generator: Adobe Illustrator 23.0.1, SVG Export Plug-In . SVG Version: 6.00 Build 0)  -->
<svg version="1.1" id="Layer_1" xmlns="http://www.w3.org/2000/svg" xmlns:xlink="http://www.w3.org/1999/xlink" x="0px" y="0px"
	 viewBox="0 0 13 12" xml:space="preserve">
<path d="M11.9,1.2C11.3,0.4,10.4,0,9.4,0c-1,0-1.8,0.4-2.5,1.2L6.5,1.9L6.1,1.2C5.4,0.4,4.6,0,3.6,0
	c-1,0-1.9,0.4-2.6,1.2c-1.4,1.6-1.4,4.2,0,5.7l5,4.9C6.2,11.9,6.3,12,6.4,12c0,0,0.1,0,0.1,0c0.1,0,0.3-0.1,0.4-0.2l5-4.9
	C13.4,5.4,13.4,2.8,11.9,1.2z"/>
</svg>
