<?xml version="1.0" encoding="utf-8"?>
<!-- Generator: Adobe Illustrator 23.0.1, SVG Export Plug-In . SVG Version: 6.00 Build 0)  -->
<svg version="1.1" id="Layer_1" xmlns="http://www.w3.org/2000/svg" xmlns:xlink="http://www.w3.org/1999/xlink" x="0px" y="0px"
	 viewBox="0 0 14 13" style="enable-background:new 0 0 14 13;" xml:space="preserve">
<path class="st0" d="M8.7,4.3h4c0.7,0,1.3,0.6,1.3,1.3c0,0,0,1.5-0.1,1.7s-2,4.9-2,4.9c-0.2,0.5-1.8,0.8-2.3,0.8H5.1
	c-0.7,0-1.7-0.6-1.7-1.3V4.7l4.4-4.4c0.4-0.4,1-0.4,1.4,0C9.2,0.5,9.4,0.7,9.4,1v0.2L8.7,4.3z M1,13c-0.6,0-1-0.4-1-1V5.7
	c0-0.6,0.4-1,1-1h0.2c0.6,0,1,0.4,1,1V12c0,0.6-0.4,1-1,1H1z"/>
</svg>
