<?xml version="1.0" encoding="utf-8"?>
<!-- Generator: Adobe Illustrator 22.1.0, SVG Export Plug-In . SVG Version: 6.00 Build 0)  -->
<svg version="1.1" id="Слой_1" xmlns="http://www.w3.org/2000/svg" xmlns:xlink="http://www.w3.org/1999/xlink" x="0px" y="0px"
	 viewBox="0 0 16 14" style="enable-background:new 0 0 16 14;" xml:space="preserve">
<rect y="11" width="3" height="3"/>
<rect width="3" height="3"/>
<rect y="5.5" width="3" height="3"/>
<rect x="5" width="11" height="3"/>
<rect x="5" y="11" width="11" height="3"/>
<rect x="5" y="5.5" width="11" height="3"/>
</svg>
