<?xml version="1.0" encoding="utf-8"?>
<!-- Generator: Adobe Illustrator 22.1.0, SVG Export Plug-In . SVG Version: 6.00 Build 0)  -->
<svg version="1.1" id="Слой_1" xmlns="http://www.w3.org/2000/svg" xmlns:xlink="http://www.w3.org/1999/xlink" x="0px" y="0px"
	 viewBox="0 0 15 20" style="enable-background:new 0 0 15 20;" xml:space="preserve">
<path d="M12.8,2C9.9-0.7,5.1-0.7,2.2,2c-2.6,2.5-2.9,7.1-0.7,9.9l6,8.1l6-8.1C15.7,9.1,15.4,4.5,12.8,2z M7.5,9c-1.1,0-2-0.9-2-2
	s0.9-2,2-2s2,0.9,2,2S8.6,9,7.5,9z"/>
</svg>
