<?xml version="1.0" encoding="utf-8"?>
<!-- Generator: Adobe Illustrator 22.1.0, SVG Export Plug-In . SVG Version: 6.00 Build 0)  -->
<svg version="1.1" id="Слой_1" xmlns="http://www.w3.org/2000/svg" xmlns:xlink="http://www.w3.org/1999/xlink" x="0px" y="0px"
	 viewBox="0 0 16.1 21.5" style="enable-background:new 0 0 16.1 21.5;" xml:space="preserve">
<g>
	<path d="M10.4,21.5H2c-1.1,0-2-0.9-2-2V2c0-1.1,0.9-2,2-2h12.1c1.1,0,2,0.9,2,2v13c0,0.4-0.1,0.7-0.4,1l-4.2,5
		C11.2,21.3,10.8,21.5,10.4,21.5z M2,1C1.4,1,1,1.4,1,2v17.5c0,0.6,0.4,1,1,1h8.4c0.1,0,0.3-0.1,0.4-0.2l4.2-5
		c0.1-0.1,0.1-0.2,0.1-0.3V2c0-0.6-0.4-1-1-1H2z"/>
</g>
<g>
	<path d="M10.8,21.5H2c-1.1,0-2-0.9-2-2V2c0-1.1,0.9-2,2-2h12.1c1.1,0,2,0.9,2,2l0,0c0,0,0,8.8,0,13.3c0,0.1-0.1,0.3-0.1,0.4
		s-0.2,0.1-0.4,0.1l-3.8,0c-0.2,0-0.3,0.1-0.4,0.1c-0.1,0.1-0.1,0.2-0.1,0.4l0,4.7c0,0.1-0.1,0.3-0.1,0.4
		C11.1,21.5,11,21.5,10.8,21.5z M2,1C1.4,1,1,1.4,1,2v17.5c0,0.6,0.4,1,1,1h8.3l0-4.2c0-0.4,0.2-0.8,0.4-1.1
		c0.3-0.3,0.7-0.4,1.1-0.4c0,0,0,0,0,0l3.3,0c0-4.6,0-12.8,0-12.8c0-0.6-0.4-1-1-1H2z"/>
</g>
<g>
	<path d="M8,8.5c-1.5,0-2.8-1.2-2.8-2.8S6.5,3,8,3s2.8,1.2,2.8,2.8S9.5,8.5,8,8.5z M8,4C7,4,6.3,4.8,6.3,5.8S7,7.5,8,7.5
		s1.8-0.8,1.8-1.8S9,4,8,4z"/>
</g>
<g>
	<path d="M12.2,11.9H3.5c-0.3,0-0.5-0.2-0.5-0.5s0.2-0.5,0.5-0.5h8.7c0.3,0,0.5,0.2,0.5,0.5S12.4,11.9,12.2,11.9z"/>
</g>
<g>
	<path d="M8.4,15.6H3.5c-0.3,0-0.5-0.2-0.5-0.5s0.2-0.5,0.5-0.5h4.9c0.3,0,0.5,0.2,0.5,0.5S8.7,15.6,8.4,15.6z"/>
</g>
</svg>
