<svg width="24" height="24" viewBox="0 0 24 24" fill="none" xmlns="http://www.w3.org/2000/svg">
<path fill-rule="evenodd" clip-rule="evenodd" d="M5.32568 15.6407L9.03818 19.3532L18.5842 9.80723L14.8717 6.09473L5.32568 15.6407Z" stroke="#4F4F4F" stroke-width="1.5" stroke-linecap="round" stroke-linejoin="round"/>
<path fill-rule="evenodd" clip-rule="evenodd" d="M14.8711 6.09512L18.5836 9.80687L19.9096 8.48163C20.9348 7.45563 20.9348 5.79438 19.9096 4.76838C18.8851 3.74387 17.2223 3.74387 16.1978 4.76838L14.8711 6.09512Z" stroke="#4F4F4F" stroke-width="1.5" stroke-linecap="round" stroke-linejoin="round"/>
<path fill-rule="evenodd" clip-rule="evenodd" d="M4 20.6791L9.0385 19.3531L7.1815 17.4969L5.326 15.6406L4 20.6791Z" stroke="#4F4F4F" stroke-width="1.5" stroke-linecap="round" stroke-linejoin="round"/>
</svg>
