<?xml version="1.0" encoding="utf-8"?>
<!-- Generator: Adobe Illustrator 22.1.0, SVG Export Plug-In . SVG Version: 6.00 Build 0)  -->
<svg version="1.1" id="Слой_1" xmlns="http://www.w3.org/2000/svg" xmlns:xlink="http://www.w3.org/1999/xlink" x="0px" y="0px"
	 viewBox="0 0 20.5 19.4" style="enable-background:new 0 0 20.5 19.4;" xml:space="preserve">
<g>
	<path d="M16.6,19.4H4c-1.3,0-2.3-0.9-2.3-2V7.3c0-0.3,0.2-0.5,0.5-0.5s0.5,0.2,0.5,0.5v10.1c0,0.6,0.6,1,1.3,1h12.6
		c0.7,0,1.3-0.5,1.3-1l0-9.9C18,7.2,18.2,7,18.5,7h0C18.7,7,19,7.2,19,7.5l0,9.9C18.9,18.5,17.9,19.4,16.6,19.4z"/>
</g>
<g>
	<path d="M2.8,7.7C2,7.7,1.2,7.3,0.6,6.6C0.1,6-0.1,5.1,0.1,4.3c0,0,0-0.1,0-0.1l1.8-3.9C2,0.1,2.2,0,2.3,0h4.1
		c0.2,0,0.3,0.1,0.4,0.2C7,0.3,7,0.5,6.9,0.6L5.6,5.3C5.1,6.9,4.2,7.7,2.8,7.7z M1,4.5C0.9,5.1,1.1,5.6,1.4,6
		c0.3,0.4,0.9,0.7,1.4,0.7c0.7,0,1.4-0.2,1.8-1.7l1.2-4H2.7L1,4.5z"/>
</g>
<g>
	<path d="M7.9,7.7C7,7.7,6.3,7.4,5.7,6.8C5.2,6.1,4.9,5.3,5,4.5l1.3-4.2C6.4,0.1,6.6,0,6.8,0h3.4c0.3,0,0.5,0.2,0.5,0.5v4.4
		C10.7,6.4,9.4,7.7,7.9,7.7z M7.2,1L6,4.7c0,0.4,0.1,0.9,0.5,1.3c0.3,0.4,0.8,0.6,1.4,0.6c1,0,1.8-0.8,1.8-1.8V1H7.2z"/>
</g>
<g>
	<path d="M12.6,7.7c-1.6,0-2.8-1.3-2.8-2.8V0.5C9.7,0.2,10,0,10.2,0h3.4c0.2,0,0.4,0.1,0.5,0.3l1.3,4.1c0.1,0.9-0.1,1.7-0.7,2.3
		S13.4,7.7,12.6,7.7z M10.7,1v3.9c0,1,0.8,1.8,1.8,1.8c0.5,0,1-0.2,1.4-0.6c0.3-0.4,0.5-0.9,0.5-1.4L13.2,1H10.7z"/>
</g>
<g>
	<path d="M17.7,7.7c-1.4,0-2.5-0.9-2.8-2.4l-1.3-4.6c0-0.2,0-0.3,0.1-0.4C13.7,0.1,13.9,0,14.1,0h4.1c0.2,0,0.4,0.1,0.5,0.3l1.8,3.9
		c0,0,0,0.1,0,0.1c0.2,0.8,0,1.7-0.5,2.4C19.4,7.3,18.6,7.7,17.7,7.7z M14.7,1l1.2,4c0.2,0.8,0.6,1.7,1.8,1.7c0.6,0,1.1-0.2,1.4-0.7
		c0.3-0.4,0.5-1,0.4-1.5L17.8,1H14.7z"/>
</g>
<g>
	<path d="M13.5,19.1H7.2c-0.3,0-0.5-0.2-0.5-0.5v-4.8c0-2,1.6-3.7,3.7-3.7c2,0,3.7,1.6,3.7,3.7v4.8C14,18.8,13.8,19.1,13.5,19.1z
		 M7.7,18.1H13v-4.3c0-1.5-1.2-2.7-2.7-2.7s-2.7,1.2-2.7,2.7V18.1z"/>
</g>
</svg>
