<svg width="20" height="20" viewBox="0 0 20 20" fill="none" xmlns="http://www.w3.org/2000/svg">
<path d="M10 0C8.1901 0 6.51693 0.445964 4.98047 1.33789C3.44401 2.22982 2.22982 3.44401 1.33789 4.98047C0.445964 6.51693 0 8.1901 0 10C0 11.8099 0.445964 13.4831 1.33789 15.0195C2.22982 16.556 3.44401 17.7702 4.98047 18.6621C6.51693 19.554 8.1901 20 10 20C11.8099 20 13.4831 19.554 15.0195 18.6621C16.556 17.7702 17.7702 16.556 18.6621 15.0195C19.554 13.4831 20 11.8099 20 10C20 8.1901 19.554 6.51693 18.6621 4.98047C17.7702 3.44401 16.556 2.22982 15.0195 1.33789C13.4831 0.445964 11.8099 0 10 0ZM12.5 1.62109C13.2031 1.82943 13.8672 2.1224 14.4922 2.5C15.1172 2.8776 15.6803 3.31706 16.1816 3.81836C16.6829 4.31966 17.1224 4.88281 17.5 5.50781C17.8776 6.13281 18.1706 6.79688 18.3789 7.5H14.3164C13.8737 6.73177 13.2682 6.1263 12.5 5.68359V1.62109ZM13.75 10C13.75 11.0417 13.3822 11.9271 12.6465 12.6562C11.9108 13.3854 11.0286 13.75 10 13.75C9.32292 13.75 8.69792 13.584 8.125 13.252C7.55208 12.9199 7.09635 12.4642 6.75781 11.8848C6.41927 11.3053 6.25 10.6771 6.25 10C6.25 8.97135 6.61784 8.08919 7.35352 7.35352C8.08919 6.61784 8.97135 6.25 10 6.25C10.6771 6.25 11.3021 6.41927 11.875 6.75781C12.4479 7.09635 12.9036 7.55208 13.2422 8.125C13.5807 8.69792 13.75 9.32292 13.75 10ZM8.75 1.34766C9.16667 1.28255 9.58333 1.25 10 1.25C10.4167 1.25 10.8333 1.28255 11.25 1.34766V5.17578C10.8333 5.05859 10.4199 5 10.0098 5C9.59961 5 9.17969 5.05859 8.75 5.17578V1.34766ZM7.5 1.62109V5.68359C7.1224 5.90495 6.7806 6.16862 6.47461 6.47461C6.16862 6.7806 5.90495 7.1224 5.68359 7.5H1.62109C2.20703 5.53385 3.34635 3.97135 5.03906 2.8125C5.80729 2.27865 6.6276 1.88151 7.5 1.62109ZM1.25 10C1.25 9.89583 1.25326 9.79167 1.25977 9.6875L1.2793 9.375L1.30859 9.0625L1.34766 8.75H5.17578C5.05859 9.16667 5 9.58333 5 10C5 10.4167 5.05208 10.8333 5.15625 11.25H1.34766C1.28255 10.8073 1.25 10.3906 1.25 10ZM7.5 18.3789C6.09375 17.9622 4.86654 17.2298 3.81836 16.1816C2.77018 15.1335 2.03776 13.9062 1.62109 12.5H5.68359C6.1263 13.2682 6.73177 13.8737 7.5 14.3164V18.3789ZM11.25 18.6523C10.8333 18.7174 10.4167 18.75 10 18.75C9.58333 18.75 9.16667 18.7174 8.75 18.6523V14.8438C9.17969 14.9479 9.59961 15 10.0098 15C10.4199 15 10.8333 14.9479 11.25 14.8438V18.6523ZM12.5 18.3789V14.3164C13.2682 13.8737 13.8737 13.2682 14.3164 12.5H18.3789C18.0924 13.4375 17.6693 14.3001 17.1094 15.0879C16.5495 15.8757 15.8757 16.5527 15.0879 17.1191C14.3001 17.6855 13.4375 18.1055 12.5 18.3789ZM14.8438 11.25C14.8958 11.0417 14.9349 10.8333 14.9609 10.625C14.987 10.4167 15 10.2083 15 10C15 9.58333 14.9414 9.16667 14.8242 8.75H18.6523C18.7174 9.19271 18.75 9.60938 18.75 10C18.75 10.3906 18.7174 10.8073 18.6523 11.25H14.8438Z" fill="#4F4F4F"/>
</svg>
