<?xml version="1.0" encoding="utf-8"?>
<!-- Generator: Adobe Illustrator 22.1.0, SVG Export Plug-In . SVG Version: 6.00 Build 0)  -->
<svg version="1.1" id="Слой_1" xmlns="http://www.w3.org/2000/svg" xmlns:xlink="http://www.w3.org/1999/xlink" x="0px" y="0px"
	 viewBox="0 0 15 15" style="enable-background:new 0 0 15 15;" xml:space="preserve">
<g>
	<path d="M11.1,15c-0.7,0-1.6-0.2-2.6-0.8c-1.7-0.9-3.3-2.3-4.3-3.4C1.9,8.5-1.6,4.3,0.8,1.9l1.6-1.6c0.4-0.4,1.1-0.4,1.5,0l2.3,2.3
		c0.2,0.2,0.3,0.5,0.3,0.7c0,0.3-0.1,0.6-0.3,0.8L4.8,5.5c0.1,0.3,0.6,1.1,2.1,2.6c1.5,1.5,2.3,1.9,2.6,2.1l1.4-1.4
		c0.2-0.2,0.5-0.3,0.8-0.3c0,0,0,0,0,0c0.3,0,0.5,0.1,0.7,0.3l2.3,2.3c0.4,0.4,0.4,1.1,0,1.5l-1.6,1.6C12.7,14.6,12,15,11.1,15z
		 M3.2,1L1.5,2.6c-1.9,1.9,2.1,6.2,3.3,7.5C5.7,11,7.3,12.5,9,13.3c1.5,0.8,2.7,0.9,3.4,0.1l1.6-1.6l-2.3-2.4L10,11.1
		c-0.1,0.1-0.2,0.1-0.4,0.1c0,0,0,0,0,0c-0.2,0-1.2-0.2-3.5-2.5C3.9,6.5,3.7,5.6,3.7,5.3c0-0.1,0.1-0.2,0.1-0.3l1.6-1.6l0-0.1L3.2,1
		z"/>
</g>
</svg>
