<?xml version="1.0" encoding="utf-8"?>
<!-- Generator: Adobe Illustrator 22.1.0, SVG Export Plug-In . SVG Version: 6.00 Build 0)  -->
<svg version="1.1" id="Слой_1" xmlns="http://www.w3.org/2000/svg" xmlns:xlink="http://www.w3.org/1999/xlink" x="0px" y="0px"
	 viewBox="0 0 24 22" style="enable-background:new 0 0 24 22;" xml:space="preserve">
<path d="M13,16.4c0-0.6-0.4-1-1-1s-1,0.4-1,1H13z M11,17.2c0,0.6,0.4,1,1,1c0.6,0,1-0.4,1-1L11,17.2z M13,7.9c0-0.6-0.4-1-1-1
	s-1,0.4-1,1H13z M11,13.7c0,0.6,0.4,1,1,1s1-0.4,1-1H11z M21.4,21v-1V21z M2.6,21v1V21z M13.2,1.7l-0.9,0.5l0,0L13.2,1.7z
	 M22.8,18.7l0.9-0.5l0,0L22.8,18.7z M10.8,1.7l0.9,0.5l0,0L10.8,1.7z M1.2,18.7l0.9,0.5L1.2,18.7z M11,16.4v0.8l2,0v-0.8H11z
	 M11,7.9v5.8h2V7.9H11z M21.4,20H2.6v2h18.8V20z M12.3,2.2l9.6,17.1l1.7-1L14.1,1.2L12.3,2.2z M9.9,1.2L0.3,18.2l1.7,1l9.6-17.1
	L9.9,1.2z M12,0c-0.8,0-1.6,0.4-2.1,1.2l1.7,1C11.7,2.1,11.9,2,12,2V0z M14.1,1.2C13.6,0.4,12.8,0,12,0v2c0.2,0,0.3,0.1,0.3,0.2
	L14.1,1.2z M2.6,20c-0.3,0-0.4-0.1-0.5-0.3c-0.1-0.2-0.1-0.3,0-0.5l-1.7-1C-0.7,20,0.7,22,2.6,22V20z M21.4,22c1.9,0,3.3-2,2.3-3.8
	l-1.7,1c0.1,0.2,0.1,0.3,0,0.5c-0.1,0.2-0.3,0.3-0.5,0.3V22z"/>
</svg>
