<?xml version="1.0" encoding="utf-8"?>
<!-- Generator: Adobe Illustrator 22.1.0, SVG Export Plug-In . SVG Version: 6.00 Build 0)  -->
<svg version="1.1" id="Слой_1" xmlns="http://www.w3.org/2000/svg" xmlns:xlink="http://www.w3.org/1999/xlink" x="0px" y="0px"
	 viewBox="0 0 14 14" style="enable-background:new 0 0 14 14;" xml:space="preserve">
<path d="M13.7,12.3L11.4,10c0.8-1,1.2-2.3,1.2-3.7C12.6,2.8,9.8,0,6.3,0S0,2.8,0,6.3s2.8,6.3,6.3,6.3c1.4,0,2.7-0.4,3.7-1.2l2.3,2.3
	c0.4,0.4,1,0.4,1.4,0C14.1,13.3,14.1,12.7,13.7,12.3z M6.3,10.6C3.9,10.6,2,8.7,2,6.3C2,3.9,3.9,2,6.3,2c2.4,0,4.3,1.9,4.3,4.3
	c0,1.2-0.5,2.3-1.3,3C8.6,10.1,7.5,10.6,6.3,10.6z"/>
</svg>
